<?xml version="1.0" encoding="UTF-8" standalone="no"?>
<!DOCTYPE svg PUBLIC "-//W3C//DTD SVG 1.1//EN"
 "http://www.w3.org/Graphics/SVG/1.1/DTD/svg11.dtd">
<!-- Generated by graphviz version 9.0.0 (0)
 -->
<!-- Pages: 1 -->
<svg width="5003pt" height="980pt"
 viewBox="0.00 0.00 5002.76 980.00" xmlns="http://www.w3.org/2000/svg" xmlns:xlink="http://www.w3.org/1999/xlink">
<g id="graph0" class="graph" transform="scale(1 1) rotate(0) translate(4 976)">
<polygon fill="white" stroke="none" points="-4,4 -4,-976 4998.76,-976 4998.76,4 -4,4"/>
<!-- exe_eternaltwin_x86_64_apple_darwin -->
<g id="node1" class="node">
<title>exe_eternaltwin_x86_64_apple_darwin</title>
<ellipse fill="none" stroke="black" cx="2475.55" cy="-738" rx="156.78" ry="18"/>
<text text-anchor="middle" x="2475.55" y="-732.95" font-family="Times,serif" font-size="14.00">exe_eternaltwin_x86_64_apple_darwin</text>
</g>
<!-- rs_bin_eternaltwin -->
<g id="node5" class="node">
<title>rs_bin_eternaltwin</title>
<ellipse fill="none" stroke="black" cx="3032.55" cy="-666" rx="80.01" ry="18"/>
<text text-anchor="middle" x="3032.55" y="-660.95" font-family="Times,serif" font-size="14.00">rs_bin_eternaltwin</text>
</g>
<!-- exe_eternaltwin_x86_64_apple_darwin&#45;&gt;rs_bin_eternaltwin -->
<g id="edge1" class="edge">
<title>exe_eternaltwin_x86_64_apple_darwin&#45;&gt;rs_bin_eternaltwin</title>
<path fill="none" stroke="black" d="M2592.66,-725.79C2592.66,-705.24 2592.66,-666 2592.66,-666 2592.66,-666 2940.61,-666 2940.61,-666"/>
<polygon fill="black" stroke="black" points="2940.61,-669.5 2950.61,-666 2940.61,-662.5 2940.61,-669.5"/>
</g>
<!-- exe_eternaltwin_x86_64_pc_windows_gnu -->
<g id="node2" class="node">
<title>exe_eternaltwin_x86_64_pc_windows_gnu</title>
<ellipse fill="none" stroke="black" cx="2846.55" cy="-738" rx="171.63" ry="18"/>
<text text-anchor="middle" x="2846.55" y="-732.95" font-family="Times,serif" font-size="14.00">exe_eternaltwin_x86_64_pc_windows_gnu</text>
</g>
<!-- exe_eternaltwin_x86_64_pc_windows_gnu&#45;&gt;rs_bin_eternaltwin -->
<g id="edge2" class="edge">
<title>exe_eternaltwin_x86_64_pc_windows_gnu&#45;&gt;rs_bin_eternaltwin</title>
<path fill="none" stroke="black" d="M2985.35,-727.06C2985.35,-727.06 2985.35,-692.31 2985.35,-692.31"/>
<polygon fill="black" stroke="black" points="2988.85,-692.31 2985.35,-682.31 2981.85,-692.31 2988.85,-692.31"/>
</g>
<!-- exe_eternaltwin_x86_64_unknown_linux_gnu -->
<g id="node3" class="node">
<title>exe_eternaltwin_x86_64_unknown_linux_gnu</title>
<ellipse fill="none" stroke="black" cx="3244.55" cy="-738" rx="182.89" ry="18"/>
<text text-anchor="middle" x="3244.55" y="-732.95" font-family="Times,serif" font-size="14.00">exe_eternaltwin_x86_64_unknown_linux_gnu</text>
</g>
<!-- exe_eternaltwin_x86_64_unknown_linux_gnu&#45;&gt;rs_bin_eternaltwin -->
<g id="edge3" class="edge">
<title>exe_eternaltwin_x86_64_unknown_linux_gnu&#45;&gt;rs_bin_eternaltwin</title>
<path fill="none" stroke="black" d="M3087.11,-728.59C3087.11,-728.59 3087.11,-691.11 3087.11,-691.11"/>
<polygon fill="black" stroke="black" points="3090.61,-691.11 3087.11,-681.11 3083.61,-691.11 3090.61,-691.11"/>
</g>
<!-- exe_eternaltwin_x86_64_unknown_linux_musl -->
<g id="node4" class="node">
<title>exe_eternaltwin_x86_64_unknown_linux_musl</title>
<ellipse fill="none" stroke="black" cx="3670.55" cy="-738" rx="187.49" ry="18"/>
<text text-anchor="middle" x="3670.55" y="-732.95" font-family="Times,serif" font-size="14.00">exe_eternaltwin_x86_64_unknown_linux_musl</text>
</g>
<!-- exe_eternaltwin_x86_64_unknown_linux_musl&#45;&gt;rs_bin_eternaltwin -->
<g id="edge4" class="edge">
<title>exe_eternaltwin_x86_64_unknown_linux_musl&#45;&gt;rs_bin_eternaltwin</title>
<path fill="none" stroke="black" d="M3562.86,-723.08C3562.86,-701.99 3562.86,-666 3562.86,-666 3562.86,-666 3124.32,-666 3124.32,-666"/>
<polygon fill="black" stroke="black" points="3124.32,-662.5 3114.32,-666 3124.32,-669.5 3124.32,-662.5"/>
</g>
<!-- rs_lib_eternaltwin_cli -->
<g id="node10" class="node">
<title>rs_lib_eternaltwin_cli</title>
<ellipse fill="none" stroke="black" cx="3032.55" cy="-594" rx="91.78" ry="18"/>
<text text-anchor="middle" x="3032.55" y="-588.95" font-family="Times,serif" font-size="14.00">rs_lib_eternaltwin_cli</text>
</g>
<!-- rs_bin_eternaltwin&#45;&gt;rs_lib_eternaltwin_cli -->
<g id="edge5" class="edge">
<title>rs_bin_eternaltwin&#45;&gt;rs_lib_eternaltwin_cli</title>
<path fill="none" stroke="black" d="M3032.55,-647.83C3032.55,-647.83 3032.55,-623.93 3032.55,-623.93"/>
<polygon fill="black" stroke="black" points="3036.05,-623.93 3032.55,-613.93 3029.05,-623.93 3036.05,-623.93"/>
</g>
<!-- rs_bin_xtask -->
<g id="node6" class="node">
<title>rs_bin_xtask</title>
<ellipse fill="none" stroke="black" cx="870.55" cy="-234" rx="58" ry="18"/>
<text text-anchor="middle" x="870.55" y="-228.95" font-family="Times,serif" font-size="14.00">rs_bin_xtask</text>
</g>
<!-- rs_lib_cargo_client -->
<g id="node7" class="node">
<title>rs_lib_cargo_client</title>
<ellipse fill="none" stroke="black" cx="782.55" cy="-90" rx="82.06" ry="18"/>
<text text-anchor="middle" x="782.55" y="-84.95" font-family="Times,serif" font-size="14.00">rs_lib_cargo_client</text>
</g>
<!-- rs_bin_xtask&#45;&gt;rs_lib_cargo_client -->
<g id="edge7" class="edge">
<title>rs_bin_xtask&#45;&gt;rs_lib_cargo_client</title>
<path fill="none" stroke="black" d="M815.61,-228C799.82,-228 786.78,-228 786.78,-228 786.78,-228 786.78,-119.84 786.78,-119.84"/>
<polygon fill="black" stroke="black" points="790.28,-119.84 786.78,-109.84 783.28,-119.84 790.28,-119.84"/>
</g>
<!-- rs_lib_eternaltwin_core -->
<g id="node14" class="node">
<title>rs_lib_eternaltwin_core</title>
<ellipse fill="none" stroke="black" cx="3041.55" cy="-90" rx="98.44" ry="18"/>
<text text-anchor="middle" x="3041.55" y="-84.95" font-family="Times,serif" font-size="14.00">rs_lib_eternaltwin_core</text>
</g>
<!-- rs_bin_xtask&#45;&gt;rs_lib_eternaltwin_core -->
<g id="edge8" class="edge">
<title>rs_bin_xtask&#45;&gt;rs_lib_eternaltwin_core</title>
<path fill="none" stroke="black" d="M925.74,-240C982.93,-240 1064.05,-240 1064.05,-240 1064.05,-240 1064.05,-78 1064.05,-78 1064.05,-78 2954.93,-78 2954.93,-78"/>
<polygon fill="black" stroke="black" points="2954.93,-81.5 2964.93,-78 2954.93,-74.5 2954.93,-81.5"/>
</g>
<!-- rs_lib_gitlab_client -->
<g id="node38" class="node">
<title>rs_lib_gitlab_client</title>
<ellipse fill="none" stroke="black" cx="965.55" cy="-90" rx="82.57" ry="18"/>
<text text-anchor="middle" x="965.55" y="-84.95" font-family="Times,serif" font-size="14.00">rs_lib_gitlab_client</text>
</g>
<!-- rs_bin_xtask&#45;&gt;rs_lib_gitlab_client -->
<g id="edge9" class="edge">
<title>rs_bin_xtask&#45;&gt;rs_lib_gitlab_client</title>
<path fill="none" stroke="black" d="M925.65,-228C956.3,-228 988.34,-228 988.34,-228 988.34,-228 988.34,-119.27 988.34,-119.27"/>
<polygon fill="black" stroke="black" points="991.84,-119.27 988.34,-109.27 984.84,-119.27 991.84,-119.27"/>
</g>
<!-- rs_lib_npm_client -->
<g id="node39" class="node">
<title>rs_lib_npm_client</title>
<ellipse fill="none" stroke="black" cx="603.55" cy="-90" rx="78.48" ry="18"/>
<text text-anchor="middle" x="603.55" y="-84.95" font-family="Times,serif" font-size="14.00">rs_lib_npm_client</text>
</g>
<!-- rs_bin_xtask&#45;&gt;rs_lib_npm_client -->
<g id="edge10" class="edge">
<title>rs_bin_xtask&#45;&gt;rs_lib_npm_client</title>
<path fill="none" stroke="black" d="M815.22,-240C737.42,-240 605.09,-240 605.09,-240 605.09,-240 605.09,-119.91 605.09,-119.91"/>
<polygon fill="black" stroke="black" points="608.59,-119.91 605.09,-109.91 601.59,-119.91 608.59,-119.91"/>
</g>
<!-- rs_lib_xtask -->
<g id="node40" class="node">
<title>rs_lib_xtask</title>
<ellipse fill="none" stroke="black" cx="870.55" cy="-162" rx="55.96" ry="18"/>
<text text-anchor="middle" x="870.55" y="-156.95" font-family="Times,serif" font-size="14.00">rs_lib_xtask</text>
</g>
<!-- rs_bin_xtask&#45;&gt;rs_lib_xtask -->
<g id="edge6" class="edge">
<title>rs_bin_xtask&#45;&gt;rs_lib_xtask</title>
<path fill="none" stroke="black" d="M870.55,-215.83C870.55,-215.83 870.55,-191.93 870.55,-191.93"/>
<polygon fill="black" stroke="black" points="874.05,-191.93 870.55,-181.93 867.05,-191.93 874.05,-191.93"/>
</g>
<!-- rs_lib_eternaltwin_app -->
<g id="node8" class="node">
<title>rs_lib_eternaltwin_app</title>
<ellipse fill="none" stroke="black" cx="1164.55" cy="-522" rx="95.88" ry="18"/>
<text text-anchor="middle" x="1164.55" y="-516.95" font-family="Times,serif" font-size="14.00">rs_lib_eternaltwin_app</text>
</g>
<!-- ts_lib_eternaltwin_website -->
<g id="node56" class="node">
<title>ts_lib_eternaltwin_website</title>
<ellipse fill="none" stroke="black" cx="1025.55" cy="-450" rx="110.21" ry="18"/>
<text text-anchor="middle" x="1025.55" y="-444.95" font-family="Times,serif" font-size="14.00">ts_lib_eternaltwin_website</text>
</g>
<!-- rs_lib_eternaltwin_app&#45;&gt;ts_lib_eternaltwin_website -->
<g id="edge11" class="edge">
<title>rs_lib_eternaltwin_app&#45;&gt;ts_lib_eternaltwin_website</title>
<path fill="none" stroke="black" d="M1102.21,-508.12C1102.21,-508.12 1102.21,-474.39 1102.21,-474.39"/>
<polygon fill="black" stroke="black" points="1105.71,-474.39 1102.21,-464.39 1098.71,-474.39 1105.71,-474.39"/>
</g>
<!-- rs_lib_eternaltwin_auth_store -->
<g id="node9" class="node">
<title>rs_lib_eternaltwin_auth_store</title>
<ellipse fill="none" stroke="black" cx="3133.55" cy="-378" rx="120.96" ry="18"/>
<text text-anchor="middle" x="3133.55" y="-372.95" font-family="Times,serif" font-size="14.00">rs_lib_eternaltwin_auth_store</text>
</g>
<!-- rs_lib_eternaltwin_config -->
<g id="node12" class="node">
<title>rs_lib_eternaltwin_config</title>
<ellipse fill="none" stroke="black" cx="2907.55" cy="-162" rx="106.11" ry="18"/>
<text text-anchor="middle" x="2907.55" y="-156.95" font-family="Times,serif" font-size="14.00">rs_lib_eternaltwin_config</text>
</g>
<!-- rs_lib_eternaltwin_auth_store&#45;&gt;rs_lib_eternaltwin_config -->
<g id="edge16" class="edge">
<title>rs_lib_eternaltwin_auth_store&#45;&gt;rs_lib_eternaltwin_config</title>
<path fill="none" stroke="black" stroke-dasharray="1,5" d="M3014.13,-375C2926.8,-375 2823.54,-375 2823.54,-375 2823.54,-375 2823.54,-184.67 2823.54,-184.67"/>
<polygon fill="black" stroke="black" points="2827.04,-184.67 2823.54,-174.67 2820.04,-184.67 2827.04,-184.67"/>
</g>
<!-- rs_lib_eternaltwin_constants -->
<g id="node13" class="node">
<title>rs_lib_eternaltwin_constants</title>
<ellipse fill="none" stroke="black" cx="2213.55" cy="-162" rx="116.86" ry="18"/>
<text text-anchor="middle" x="2213.55" y="-156.95" font-family="Times,serif" font-size="14.00">rs_lib_eternaltwin_constants</text>
</g>
<!-- rs_lib_eternaltwin_auth_store&#45;&gt;rs_lib_eternaltwin_constants -->
<g id="edge12" class="edge">
<title>rs_lib_eternaltwin_auth_store&#45;&gt;rs_lib_eternaltwin_constants</title>
<path fill="none" stroke="black" d="M3065.39,-362.73C3065.39,-348.02 3065.39,-328 3065.39,-328 3065.39,-328 2648.03,-328 2648.03,-328 2648.03,-328 2648.03,-168 2648.03,-168 2648.03,-168 2335.82,-168 2335.82,-168"/>
<polygon fill="black" stroke="black" points="2335.82,-164.5 2325.82,-168 2335.82,-171.5 2335.82,-164.5"/>
</g>
<!-- rs_lib_eternaltwin_auth_store&#45;&gt;rs_lib_eternaltwin_core -->
<g id="edge13" class="edge">
<title>rs_lib_eternaltwin_auth_store&#45;&gt;rs_lib_eternaltwin_core</title>
<path fill="none" stroke="black" d="M3173.15,-360.76C3173.15,-326.69 3173.15,-254 3173.15,-254 3173.15,-254 3058.74,-254 3058.74,-254 3058.74,-254 3058.74,-119.69 3058.74,-119.69"/>
<polygon fill="black" stroke="black" points="3062.24,-119.69 3058.74,-109.69 3055.24,-119.69 3062.24,-119.69"/>
</g>
<!-- rs_lib_eternaltwin_db_schema -->
<g id="node15" class="node">
<title>rs_lib_eternaltwin_db_schema</title>
<ellipse fill="none" stroke="black" cx="3194.55" cy="-234" rx="124.54" ry="18"/>
<text text-anchor="middle" x="3194.55" y="-228.95" font-family="Times,serif" font-size="14.00">rs_lib_eternaltwin_db_schema</text>
</g>
<!-- rs_lib_eternaltwin_auth_store&#45;&gt;rs_lib_eternaltwin_db_schema -->
<g id="edge17" class="edge">
<title>rs_lib_eternaltwin_auth_store&#45;&gt;rs_lib_eternaltwin_db_schema</title>
<path fill="none" stroke="black" stroke-dasharray="1,5" d="M3200.27,-362.59C3200.27,-362.59 3200.27,-263.97 3200.27,-263.97"/>
<polygon fill="black" stroke="black" points="3203.77,-263.97 3200.27,-253.97 3196.77,-263.97 3203.77,-263.97"/>
</g>
<!-- rs_lib_eternaltwin_populate -->
<g id="node28" class="node">
<title>rs_lib_eternaltwin_populate</title>
<ellipse fill="none" stroke="black" cx="2213.55" cy="-234" rx="114.3" ry="18"/>
<text text-anchor="middle" x="2213.55" y="-228.95" font-family="Times,serif" font-size="14.00">rs_lib_eternaltwin_populate</text>
</g>
<!-- rs_lib_eternaltwin_auth_store&#45;&gt;rs_lib_eternaltwin_populate -->
<g id="edge14" class="edge">
<title>rs_lib_eternaltwin_auth_store&#45;&gt;rs_lib_eternaltwin_populate</title>
<path fill="none" stroke="black" d="M3038.99,-366.64C3038.99,-353.31 3038.99,-333 3038.99,-333 3038.99,-333 2306.72,-333 2306.72,-333 2306.72,-333 2306.72,-256.11 2306.72,-256.11"/>
<polygon fill="black" stroke="black" points="2310.22,-256.11 2306.72,-246.11 2303.22,-256.11 2310.22,-256.11"/>
</g>
<!-- rs_lib_eternaltwin_postgres_tools -->
<g id="node29" class="node">
<title>rs_lib_eternaltwin_postgres_tools</title>
<ellipse fill="none" stroke="black" cx="2481.55" cy="-234" rx="135.8" ry="18"/>
<text text-anchor="middle" x="2481.55" y="-228.95" font-family="Times,serif" font-size="14.00">rs_lib_eternaltwin_postgres_tools</text>
</g>
<!-- rs_lib_eternaltwin_auth_store&#45;&gt;rs_lib_eternaltwin_postgres_tools -->
<g id="edge15" class="edge">
<title>rs_lib_eternaltwin_auth_store&#45;&gt;rs_lib_eternaltwin_postgres_tools</title>
<path fill="none" stroke="black" d="M3146.03,-359.66C3146.03,-330.79 3146.03,-278 3146.03,-278 3146.03,-278 2562.88,-278 2562.88,-278 2562.88,-278 2562.88,-259.92 2562.88,-259.92"/>
<polygon fill="black" stroke="black" points="2566.38,-259.92 2562.88,-249.92 2559.38,-259.92 2566.38,-259.92"/>
</g>
<!-- rs_lib_eternaltwin_user_store -->
<g id="node37" class="node">
<title>rs_lib_eternaltwin_user_store</title>
<ellipse fill="none" stroke="black" cx="3571.55" cy="-306" rx="120.45" ry="18"/>
<text text-anchor="middle" x="3571.55" y="-300.95" font-family="Times,serif" font-size="14.00">rs_lib_eternaltwin_user_store</text>
</g>
<!-- rs_lib_eternaltwin_auth_store&#45;&gt;rs_lib_eternaltwin_user_store -->
<g id="edge18" class="edge">
<title>rs_lib_eternaltwin_auth_store&#45;&gt;rs_lib_eternaltwin_user_store</title>
<path fill="none" stroke="black" stroke-dasharray="1,5" d="M3227.39,-366.5C3227.39,-347.59 3227.39,-312 3227.39,-312 3227.39,-312 3445.91,-312 3445.91,-312"/>
<polygon fill="black" stroke="black" points="3445.91,-315.5 3455.91,-312 3445.91,-308.5 3445.91,-315.5"/>
</g>
<!-- rs_lib_eternaltwin_cli&#45;&gt;rs_lib_eternaltwin_app -->
<g id="edge19" class="edge">
<title>rs_lib_eternaltwin_cli&#45;&gt;rs_lib_eternaltwin_app</title>
<path fill="none" stroke="black" d="M2949.63,-585.94C2949.63,-570 2949.63,-536 2949.63,-536 2949.63,-536 1238.81,-536 1238.81,-536"/>
<polygon fill="black" stroke="black" points="1238.81,-532.5 1228.81,-536 1238.81,-539.5 1238.81,-532.5"/>
</g>
<!-- rs_lib_eternaltwin_cli&#45;&gt;rs_lib_eternaltwin_auth_store -->
<g id="edge20" class="edge">
<title>rs_lib_eternaltwin_cli&#45;&gt;rs_lib_eternaltwin_auth_store</title>
<path fill="none" stroke="black" d="M3002.81,-576.54C3002.81,-526.31 3002.81,-385 3002.81,-385 3002.81,-385 3009.75,-385 3009.75,-385"/>
<polygon fill="black" stroke="black" points="3009.75,-388.5 3019.75,-385 3009.75,-381.5 3009.75,-388.5"/>
</g>
<!-- rs_lib_eternaltwin_cli&#45;&gt;rs_lib_eternaltwin_config -->
<g id="edge21" class="edge">
<title>rs_lib_eternaltwin_cli&#45;&gt;rs_lib_eternaltwin_config</title>
<path fill="none" stroke="black" d="M2967.35,-580.92C2967.35,-540.46 2967.35,-420 2967.35,-420 2967.35,-420 2816.48,-420 2816.48,-420 2816.48,-420 2816.48,-183 2816.48,-183"/>
<polygon fill="black" stroke="black" points="2819.98,-183 2816.48,-173 2812.98,-183 2819.98,-183"/>
</g>
<!-- rs_lib_eternaltwin_cli&#45;&gt;rs_lib_eternaltwin_core -->
<g id="edge22" class="edge">
<title>rs_lib_eternaltwin_cli&#45;&gt;rs_lib_eternaltwin_core</title>
<path fill="none" stroke="black" d="M3106.65,-583C3206.57,-583 3372.14,-583 3372.14,-583 3372.14,-583 3372.14,-100 3372.14,-100 3372.14,-100 3136.06,-100 3136.06,-100"/>
<polygon fill="black" stroke="black" points="3136.06,-96.5 3126.06,-100 3136.06,-103.5 3136.06,-96.5"/>
</g>
<!-- rs_lib_eternaltwin_cli&#45;&gt;rs_lib_eternaltwin_db_schema -->
<g id="edge23" class="edge">
<title>rs_lib_eternaltwin_cli&#45;&gt;rs_lib_eternaltwin_db_schema</title>
<path fill="none" stroke="black" d="M3086.28,-579C3157.99,-579 3276.03,-579 3276.03,-579 3276.03,-579 3276.03,-259.47 3276.03,-259.47"/>
<polygon fill="black" stroke="black" points="3279.53,-259.47 3276.03,-249.47 3272.53,-259.47 3279.53,-259.47"/>
</g>
<!-- rs_lib_eternaltwin_dinoparc_store -->
<g id="node16" class="node">
<title>rs_lib_eternaltwin_dinoparc_store</title>
<ellipse fill="none" stroke="black" cx="2124.55" cy="-306" rx="137.34" ry="18"/>
<text text-anchor="middle" x="2124.55" y="-300.95" font-family="Times,serif" font-size="14.00">rs_lib_eternaltwin_dinoparc_store</text>
</g>
<!-- rs_lib_eternaltwin_cli&#45;&gt;rs_lib_eternaltwin_dinoparc_store -->
<g id="edge24" class="edge">
<title>rs_lib_eternaltwin_cli&#45;&gt;rs_lib_eternaltwin_dinoparc_store</title>
<path fill="none" stroke="black" d="M2941.92,-591C2697.12,-591 2040.91,-591 2040.91,-591 2040.91,-591 2040.91,-332.04 2040.91,-332.04"/>
<polygon fill="black" stroke="black" points="2044.41,-332.04 2040.91,-322.04 2037.41,-332.04 2044.41,-332.04"/>
</g>
<!-- rs_lib_eternaltwin_email_formatter -->
<g id="node17" class="node">
<title>rs_lib_eternaltwin_email_formatter</title>
<ellipse fill="none" stroke="black" cx="4111.55" cy="-378" rx="142.97" ry="18"/>
<text text-anchor="middle" x="4111.55" y="-372.95" font-family="Times,serif" font-size="14.00">rs_lib_eternaltwin_email_formatter</text>
</g>
<!-- rs_lib_eternaltwin_cli&#45;&gt;rs_lib_eternaltwin_email_formatter -->
<g id="edge25" class="edge">
<title>rs_lib_eternaltwin_cli&#45;&gt;rs_lib_eternaltwin_email_formatter</title>
<path fill="none" stroke="black" d="M3117.61,-601C3383.77,-601 4183.03,-601 4183.03,-601 4183.03,-601 4183.03,-405.55 4183.03,-405.55"/>
<polygon fill="black" stroke="black" points="4186.53,-405.55 4183.03,-395.55 4179.53,-405.55 4186.53,-405.55"/>
</g>
<!-- rs_lib_eternaltwin_forum_store -->
<g id="node18" class="node">
<title>rs_lib_eternaltwin_forum_store</title>
<ellipse fill="none" stroke="black" cx="3514.55" cy="-378" rx="128.12" ry="18"/>
<text text-anchor="middle" x="3514.55" y="-372.95" font-family="Times,serif" font-size="14.00">rs_lib_eternaltwin_forum_store</text>
</g>
<!-- rs_lib_eternaltwin_cli&#45;&gt;rs_lib_eternaltwin_forum_store -->
<g id="edge26" class="edge">
<title>rs_lib_eternaltwin_cli&#45;&gt;rs_lib_eternaltwin_forum_store</title>
<path fill="none" stroke="black" d="M3115.53,-586C3228.61,-586 3417.18,-586 3417.18,-586 3417.18,-586 3417.18,-401.6 3417.18,-401.6"/>
<polygon fill="black" stroke="black" points="3420.68,-401.6 3417.18,-391.6 3413.68,-401.6 3420.68,-401.6"/>
</g>
<!-- rs_lib_eternaltwin_hammerfest_store -->
<g id="node19" class="node">
<title>rs_lib_eternaltwin_hammerfest_store</title>
<ellipse fill="none" stroke="black" cx="2467.55" cy="-306" rx="149.62" ry="18"/>
<text text-anchor="middle" x="2467.55" y="-300.95" font-family="Times,serif" font-size="14.00">rs_lib_eternaltwin_hammerfest_store</text>
</g>
<!-- rs_lib_eternaltwin_cli&#45;&gt;rs_lib_eternaltwin_hammerfest_store -->
<g id="edge27" class="edge">
<title>rs_lib_eternaltwin_cli&#45;&gt;rs_lib_eternaltwin_hammerfest_store</title>
<path fill="none" stroke="black" d="M2967.02,-581C2826.93,-581 2510.97,-581 2510.97,-581 2510.97,-581 2510.97,-335.13 2510.97,-335.13"/>
<polygon fill="black" stroke="black" points="2514.47,-335.13 2510.97,-325.13 2507.47,-335.13 2514.47,-335.13"/>
</g>
<!-- rs_lib_eternaltwin_job_store -->
<g id="node20" class="node">
<title>rs_lib_eternaltwin_job_store</title>
<ellipse fill="none" stroke="black" cx="4130.55" cy="-306" rx="116.86" ry="18"/>
<text text-anchor="middle" x="4130.55" y="-300.95" font-family="Times,serif" font-size="14.00">rs_lib_eternaltwin_job_store</text>
</g>
<!-- rs_lib_eternaltwin_cli&#45;&gt;rs_lib_eternaltwin_job_store -->
<g id="edge28" class="edge">
<title>rs_lib_eternaltwin_cli&#45;&gt;rs_lib_eternaltwin_job_store</title>
<path fill="none" stroke="black" d="M3123.43,-597C3355.13,-597 3949.78,-597 3949.78,-597 3949.78,-597 3949.78,-312 3949.78,-312 3949.78,-312 4008.16,-312 4008.16,-312"/>
<polygon fill="black" stroke="black" points="4008.16,-315.5 4018.16,-312 4008.16,-308.5 4008.16,-315.5"/>
</g>
<!-- rs_lib_eternaltwin_link_store -->
<g id="node21" class="node">
<title>rs_lib_eternaltwin_link_store</title>
<ellipse fill="none" stroke="black" cx="2377.55" cy="-378" rx="119.42" ry="18"/>
<text text-anchor="middle" x="2377.55" y="-372.95" font-family="Times,serif" font-size="14.00">rs_lib_eternaltwin_link_store</text>
</g>
<!-- rs_lib_eternaltwin_cli&#45;&gt;rs_lib_eternaltwin_link_store -->
<g id="edge29" class="edge">
<title>rs_lib_eternaltwin_cli&#45;&gt;rs_lib_eternaltwin_link_store</title>
<path fill="none" stroke="black" d="M2949.48,-586C2770.25,-586 2363.32,-586 2363.32,-586 2363.32,-586 2363.32,-407.61 2363.32,-407.61"/>
<polygon fill="black" stroke="black" points="2366.82,-407.61 2363.32,-397.61 2359.82,-407.61 2366.82,-407.61"/>
</g>
<!-- rs_lib_eternaltwin_log -->
<g id="node22" class="node">
<title>rs_lib_eternaltwin_log</title>
<ellipse fill="none" stroke="black" cx="1518.55" cy="-162" rx="94.34" ry="18"/>
<text text-anchor="middle" x="1518.55" y="-156.95" font-family="Times,serif" font-size="14.00">rs_lib_eternaltwin_log</text>
</g>
<!-- rs_lib_eternaltwin_cli&#45;&gt;rs_lib_eternaltwin_log -->
<g id="edge30" class="edge">
<title>rs_lib_eternaltwin_cli&#45;&gt;rs_lib_eternaltwin_log</title>
<path fill="none" stroke="black" d="M2962.35,-606C2654.7,-606 1440.69,-606 1440.69,-606 1440.69,-606 1440.69,-184.05 1440.69,-184.05"/>
<polygon fill="black" stroke="black" points="1444.19,-184.05 1440.69,-174.05 1437.19,-184.05 1444.19,-184.05"/>
</g>
<!-- rs_lib_eternaltwin_mailer -->
<g id="node23" class="node">
<title>rs_lib_eternaltwin_mailer</title>
<ellipse fill="none" stroke="black" cx="3805.55" cy="-378" rx="106.63" ry="18"/>
<text text-anchor="middle" x="3805.55" y="-372.95" font-family="Times,serif" font-size="14.00">rs_lib_eternaltwin_mailer</text>
</g>
<!-- rs_lib_eternaltwin_cli&#45;&gt;rs_lib_eternaltwin_mailer -->
<g id="edge31" class="edge">
<title>rs_lib_eternaltwin_cli&#45;&gt;rs_lib_eternaltwin_mailer</title>
<path fill="none" stroke="black" d="M3124.6,-594C3332.08,-594 3818.26,-594 3818.26,-594 3818.26,-594 3818.26,-407.56 3818.26,-407.56"/>
<polygon fill="black" stroke="black" points="3821.76,-407.56 3818.26,-397.56 3814.76,-407.56 3821.76,-407.56"/>
</g>
<!-- rs_lib_eternaltwin_mt_dns -->
<g id="node24" class="node">
<title>rs_lib_eternaltwin_mt_dns</title>
<ellipse fill="none" stroke="black" cx="4884.55" cy="-450" rx="110.21" ry="18"/>
<text text-anchor="middle" x="4884.55" y="-444.95" font-family="Times,serif" font-size="14.00">rs_lib_eternaltwin_mt_dns</text>
</g>
<!-- rs_lib_eternaltwin_cli&#45;&gt;rs_lib_eternaltwin_mt_dns -->
<g id="edge32" class="edge">
<title>rs_lib_eternaltwin_cli&#45;&gt;rs_lib_eternaltwin_mt_dns</title>
<path fill="none" stroke="black" d="M3092.85,-608C3411.49,-608 4884.55,-608 4884.55,-608 4884.55,-608 4884.55,-479.95 4884.55,-479.95"/>
<polygon fill="black" stroke="black" points="4888.05,-479.95 4884.55,-469.95 4881.05,-479.95 4888.05,-479.95"/>
</g>
<!-- rs_lib_eternaltwin_oauth_client -->
<g id="node25" class="node">
<title>rs_lib_eternaltwin_oauth_client</title>
<ellipse fill="none" stroke="black" cx="4400.55" cy="-378" rx="128.12" ry="18"/>
<text text-anchor="middle" x="4400.55" y="-372.95" font-family="Times,serif" font-size="14.00">rs_lib_eternaltwin_oauth_client</text>
</g>
<!-- rs_lib_eternaltwin_cli&#45;&gt;rs_lib_eternaltwin_oauth_client -->
<g id="edge33" class="edge">
<title>rs_lib_eternaltwin_cli&#45;&gt;rs_lib_eternaltwin_oauth_client</title>
<path fill="none" stroke="black" d="M3110.05,-604C3408.2,-604 4464.61,-604 4464.61,-604 4464.61,-604 4464.61,-405.41 4464.61,-405.41"/>
<polygon fill="black" stroke="black" points="4468.11,-405.41 4464.61,-395.41 4461.11,-405.41 4468.11,-405.41"/>
</g>
<!-- rs_lib_eternaltwin_oauth_provider_store -->
<g id="node26" class="node">
<title>rs_lib_eternaltwin_oauth_provider_store</title>
<ellipse fill="none" stroke="black" cx="1732.55" cy="-306" rx="161.39" ry="18"/>
<text text-anchor="middle" x="1732.55" y="-300.95" font-family="Times,serif" font-size="14.00">rs_lib_eternaltwin_oauth_provider_store</text>
</g>
<!-- rs_lib_eternaltwin_cli&#45;&gt;rs_lib_eternaltwin_oauth_provider_store -->
<g id="edge34" class="edge">
<title>rs_lib_eternaltwin_cli&#45;&gt;rs_lib_eternaltwin_oauth_provider_store</title>
<path fill="none" stroke="black" d="M2940.89,-596C2632.51,-596 1651.85,-596 1651.85,-596 1651.85,-596 1651.85,-333.52 1651.85,-333.52"/>
<polygon fill="black" stroke="black" points="1655.35,-333.52 1651.85,-323.52 1648.35,-333.52 1655.35,-333.52"/>
</g>
<!-- rs_lib_eternaltwin_password -->
<g id="node27" class="node">
<title>rs_lib_eternaltwin_password</title>
<ellipse fill="none" stroke="black" cx="1574.55" cy="-234" rx="117.37" ry="18"/>
<text text-anchor="middle" x="1574.55" y="-228.95" font-family="Times,serif" font-size="14.00">rs_lib_eternaltwin_password</text>
</g>
<!-- rs_lib_eternaltwin_cli&#45;&gt;rs_lib_eternaltwin_password -->
<g id="edge35" class="edge">
<title>rs_lib_eternaltwin_cli&#45;&gt;rs_lib_eternaltwin_password</title>
<path fill="none" stroke="black" d="M2947.18,-601C2622.89,-601 1485.67,-601 1485.67,-601 1485.67,-601 1485.67,-257.31 1485.67,-257.31"/>
<polygon fill="black" stroke="black" points="1489.17,-257.31 1485.67,-247.31 1482.17,-257.31 1489.17,-257.31"/>
</g>
<!-- rs_lib_eternaltwin_rest -->
<g id="node30" class="node">
<title>rs_lib_eternaltwin_rest</title>
<ellipse fill="none" stroke="black" cx="3107.55" cy="-522" rx="95.88" ry="18"/>
<text text-anchor="middle" x="3107.55" y="-516.95" font-family="Times,serif" font-size="14.00">rs_lib_eternaltwin_rest</text>
</g>
<!-- rs_lib_eternaltwin_cli&#45;&gt;rs_lib_eternaltwin_rest -->
<g id="edge36" class="edge">
<title>rs_lib_eternaltwin_cli&#45;&gt;rs_lib_eternaltwin_rest</title>
<path fill="none" stroke="black" d="M3068,-576.94C3068,-576.94 3068,-549.96 3068,-549.96"/>
<polygon fill="black" stroke="black" points="3071.5,-549.96 3068,-539.96 3064.5,-549.96 3071.5,-549.96"/>
</g>
<!-- rs_lib_eternaltwin_services -->
<g id="node33" class="node">
<title>rs_lib_eternaltwin_services</title>
<ellipse fill="none" stroke="black" cx="2818.55" cy="-450" rx="112.26" ry="18"/>
<text text-anchor="middle" x="2818.55" y="-444.95" font-family="Times,serif" font-size="14.00">rs_lib_eternaltwin_services</text>
</g>
<!-- rs_lib_eternaltwin_cli&#45;&gt;rs_lib_eternaltwin_services -->
<g id="edge37" class="edge">
<title>rs_lib_eternaltwin_cli&#45;&gt;rs_lib_eternaltwin_services</title>
<path fill="none" stroke="black" d="M2958.49,-583.28C2958.49,-551.99 2958.49,-463 2958.49,-463 2958.49,-463 2910.25,-463 2910.25,-463"/>
<polygon fill="black" stroke="black" points="2910.25,-459.5 2900.25,-463 2910.25,-466.5 2910.25,-459.5"/>
</g>
<!-- rs_lib_eternaltwin_token_store -->
<g id="node35" class="node">
<title>rs_lib_eternaltwin_token_store</title>
<ellipse fill="none" stroke="black" cx="2678.55" cy="-378" rx="125.56" ry="18"/>
<text text-anchor="middle" x="2678.55" y="-372.95" font-family="Times,serif" font-size="14.00">rs_lib_eternaltwin_token_store</text>
</g>
<!-- rs_lib_eternaltwin_cli&#45;&gt;rs_lib_eternaltwin_token_store -->
<g id="edge38" class="edge">
<title>rs_lib_eternaltwin_cli&#45;&gt;rs_lib_eternaltwin_token_store</title>
<path fill="none" stroke="black" d="M2976.22,-579.66C2976.22,-533.22 2976.22,-390 2976.22,-390 2976.22,-390 2785.88,-390 2785.88,-390"/>
<polygon fill="black" stroke="black" points="2785.88,-386.5 2775.88,-390 2785.88,-393.5 2785.88,-386.5"/>
</g>
<!-- rs_lib_eternaltwin_twinoid_store -->
<g id="node36" class="node">
<title>rs_lib_eternaltwin_twinoid_store</title>
<ellipse fill="none" stroke="black" cx="2958.55" cy="-306" rx="133.24" ry="18"/>
<text text-anchor="middle" x="2958.55" y="-300.95" font-family="Times,serif" font-size="14.00">rs_lib_eternaltwin_twinoid_store</text>
</g>
<!-- rs_lib_eternaltwin_cli&#45;&gt;rs_lib_eternaltwin_twinoid_store -->
<g id="edge39" class="edge">
<title>rs_lib_eternaltwin_cli&#45;&gt;rs_lib_eternaltwin_twinoid_store</title>
<path fill="none" stroke="black" d="M2985.08,-578.52C2985.08,-578.52 2985.08,-335.62 2985.08,-335.62"/>
<polygon fill="black" stroke="black" points="2988.58,-335.62 2985.08,-325.62 2981.58,-335.62 2988.58,-335.62"/>
</g>
<!-- rs_lib_eternaltwin_cli&#45;&gt;rs_lib_eternaltwin_user_store -->
<g id="edge40" class="edge">
<title>rs_lib_eternaltwin_cli&#45;&gt;rs_lib_eternaltwin_user_store</title>
<path fill="none" stroke="black" d="M3122.53,-590C3300.34,-590 3679.66,-590 3679.66,-590 3679.66,-590 3679.66,-325.71 3679.66,-325.71"/>
<polygon fill="black" stroke="black" points="3683.16,-325.71 3679.66,-315.71 3676.16,-325.71 3683.16,-325.71"/>
</g>
<!-- rs_lib_eternaltwin_client -->
<g id="node11" class="node">
<title>rs_lib_eternaltwin_client</title>
<ellipse fill="none" stroke="black" cx="1229.55" cy="-234" rx="103.04" ry="18"/>
<text text-anchor="middle" x="1229.55" y="-228.95" font-family="Times,serif" font-size="14.00">rs_lib_eternaltwin_client</text>
</g>
<!-- rs_lib_eternaltwin_client&#45;&gt;rs_lib_eternaltwin_constants -->
<g id="edge41" class="edge">
<title>rs_lib_eternaltwin_client&#45;&gt;rs_lib_eternaltwin_constants</title>
<path fill="none" stroke="black" d="M1263.9,-216.73C1263.9,-208.74 1263.9,-201 1263.9,-201 1263.9,-201 2144.97,-201 2144.97,-201 2144.97,-201 2144.97,-188.48 2144.97,-188.48"/>
<polygon fill="black" stroke="black" points="2148.47,-188.48 2144.97,-178.48 2141.47,-188.48 2148.47,-188.48"/>
</g>
<!-- rs_lib_eternaltwin_client&#45;&gt;rs_lib_eternaltwin_core -->
<g id="edge42" class="edge">
<title>rs_lib_eternaltwin_client&#45;&gt;rs_lib_eternaltwin_core</title>
<path fill="none" stroke="black" stroke-dasharray="1,5" d="M1332.95,-234C1371.26,-234 1405.55,-234 1405.55,-234 1405.55,-234 1405.55,-81 1405.55,-81 1405.55,-81 2943.81,-81 2943.81,-81"/>
<polygon fill="black" stroke="black" points="2943.81,-84.5 2953.81,-81 2943.81,-77.5 2943.81,-84.5"/>
</g>
<!-- rs_lib_eternaltwin_client&#45;&gt;rs_lib_eternaltwin_log -->
<g id="edge43" class="edge">
<title>rs_lib_eternaltwin_client&#45;&gt;rs_lib_eternaltwin_log</title>
<path fill="none" stroke="black" d="M1319.72,-243C1373.91,-243 1432.45,-243 1432.45,-243 1432.45,-243 1432.45,-180.99 1432.45,-180.99"/>
<polygon fill="black" stroke="black" points="1435.95,-180.99 1432.45,-170.99 1428.95,-180.99 1435.95,-180.99"/>
</g>
<!-- rs_lib_eternaltwin_scraper_tools -->
<g id="node31" class="node">
<title>rs_lib_eternaltwin_scraper_tools</title>
<ellipse fill="none" stroke="black" cx="1236.55" cy="-162" rx="131.71" ry="18"/>
<text text-anchor="middle" x="1236.55" y="-156.95" font-family="Times,serif" font-size="14.00">rs_lib_eternaltwin_scraper_tools</text>
</g>
<!-- rs_lib_eternaltwin_client&#45;&gt;rs_lib_eternaltwin_scraper_tools -->
<g id="edge44" class="edge">
<title>rs_lib_eternaltwin_client&#45;&gt;rs_lib_eternaltwin_scraper_tools</title>
<path fill="none" stroke="black" d="M1195.2,-216.57C1195.2,-216.57 1195.2,-191.03 1195.2,-191.03"/>
<polygon fill="black" stroke="black" points="1198.7,-191.03 1195.2,-181.03 1191.7,-191.03 1198.7,-191.03"/>
</g>
<!-- rs_lib_eternaltwin_serde_tools -->
<g id="node32" class="node">
<title>rs_lib_eternaltwin_serde_tools</title>
<ellipse fill="none" stroke="black" cx="3041.55" cy="-18" rx="124.54" ry="18"/>
<text text-anchor="middle" x="3041.55" y="-12.95" font-family="Times,serif" font-size="14.00">rs_lib_eternaltwin_serde_tools</text>
</g>
<!-- rs_lib_eternaltwin_client&#45;&gt;rs_lib_eternaltwin_serde_tools -->
<g id="edge45" class="edge">
<title>rs_lib_eternaltwin_client&#45;&gt;rs_lib_eternaltwin_serde_tools</title>
<path fill="none" stroke="black" d="M1319.71,-225C1354.87,-225 1386.9,-225 1386.9,-225 1386.9,-225 1386.9,-18 1386.9,-18 1386.9,-18 2905.33,-18 2905.33,-18"/>
<polygon fill="black" stroke="black" points="2905.33,-21.5 2915.33,-18 2905.33,-14.5 2905.33,-21.5"/>
</g>
<!-- rs_lib_eternaltwin_config&#45;&gt;rs_lib_eternaltwin_core -->
<g id="edge46" class="edge">
<title>rs_lib_eternaltwin_config&#45;&gt;rs_lib_eternaltwin_core</title>
<path fill="none" stroke="black" d="M2978.39,-148.46C2978.39,-148.46 2978.39,-115.49 2978.39,-115.49"/>
<polygon fill="black" stroke="black" points="2981.89,-115.49 2978.39,-105.49 2974.89,-115.49 2981.89,-115.49"/>
</g>
<!-- rs_lib_eternaltwin_constants&#45;&gt;rs_lib_eternaltwin_core -->
<g id="edge47" class="edge">
<title>rs_lib_eternaltwin_constants&#45;&gt;rs_lib_eternaltwin_core</title>
<path fill="none" stroke="black" d="M2213.55,-143.78C2213.55,-123.63 2213.55,-94 2213.55,-94 2213.55,-94 2933.84,-94 2933.84,-94"/>
<polygon fill="black" stroke="black" points="2933.84,-97.5 2943.84,-94 2933.84,-90.5 2933.84,-97.5"/>
</g>
<!-- rs_lib_eternaltwin_core&#45;&gt;rs_lib_eternaltwin_serde_tools -->
<g id="edge48" class="edge">
<title>rs_lib_eternaltwin_core&#45;&gt;rs_lib_eternaltwin_serde_tools</title>
<path fill="none" stroke="black" d="M3041.55,-71.83C3041.55,-71.83 3041.55,-47.93 3041.55,-47.93"/>
<polygon fill="black" stroke="black" points="3045.05,-47.93 3041.55,-37.93 3038.05,-47.93 3045.05,-47.93"/>
</g>
<!-- rs_lib_eternaltwin_db_schema&#45;&gt;rs_lib_eternaltwin_config -->
<g id="edge49" class="edge">
<title>rs_lib_eternaltwin_db_schema&#45;&gt;rs_lib_eternaltwin_config</title>
<path fill="none" stroke="black" d="M3082.61,-226.02C3082.61,-207.27 3082.61,-162 3082.61,-162 3082.61,-162 3025.44,-162 3025.44,-162"/>
<polygon fill="black" stroke="black" points="3025.44,-158.5 3015.44,-162 3025.44,-165.5 3025.44,-158.5"/>
</g>
<!-- rs_lib_eternaltwin_db_schema&#45;&gt;rs_lib_eternaltwin_core -->
<g id="edge50" class="edge">
<title>rs_lib_eternaltwin_db_schema&#45;&gt;rs_lib_eternaltwin_core</title>
<path fill="none" stroke="black" d="M3095.22,-223.18C3095.22,-223.18 3095.22,-116.7 3095.22,-116.7"/>
<polygon fill="black" stroke="black" points="3098.72,-116.7 3095.22,-106.7 3091.72,-116.7 3098.72,-116.7"/>
</g>
<!-- rs_lib_eternaltwin_squirrel -->
<g id="node34" class="node">
<title>rs_lib_eternaltwin_squirrel</title>
<ellipse fill="none" stroke="black" cx="3218.55" cy="-162" rx="110.72" ry="18"/>
<text text-anchor="middle" x="3218.55" y="-156.95" font-family="Times,serif" font-size="14.00">rs_lib_eternaltwin_squirrel</text>
</g>
<!-- rs_lib_eternaltwin_db_schema&#45;&gt;rs_lib_eternaltwin_squirrel -->
<g id="edge51" class="edge">
<title>rs_lib_eternaltwin_db_schema&#45;&gt;rs_lib_eternaltwin_squirrel</title>
<path fill="none" stroke="black" d="M3213.46,-215.83C3213.46,-215.83 3213.46,-191.93 3213.46,-191.93"/>
<polygon fill="black" stroke="black" points="3216.96,-191.93 3213.46,-181.93 3209.96,-191.93 3216.96,-191.93"/>
</g>
<!-- rs_lib_eternaltwin_dinoparc_store&#45;&gt;rs_lib_eternaltwin_config -->
<g id="edge56" class="edge">
<title>rs_lib_eternaltwin_dinoparc_store&#45;&gt;rs_lib_eternaltwin_config</title>
<path fill="none" stroke="black" stroke-dasharray="1,5" d="M2196.83,-290.26C2196.83,-277.28 2196.83,-261 2196.83,-261 2196.83,-261 2846.24,-261 2846.24,-261 2846.24,-261 2846.24,-188.55 2846.24,-188.55"/>
<polygon fill="black" stroke="black" points="2849.74,-188.55 2846.24,-178.55 2842.74,-188.55 2849.74,-188.55"/>
</g>
<!-- rs_lib_eternaltwin_dinoparc_store&#45;&gt;rs_lib_eternaltwin_constants -->
<g id="edge52" class="edge">
<title>rs_lib_eternaltwin_dinoparc_store&#45;&gt;rs_lib_eternaltwin_constants</title>
<path fill="none" stroke="black" d="M2060.19,-289.66C2060.19,-250.79 2060.19,-156 2060.19,-156 2060.19,-156 2091.4,-156 2091.4,-156"/>
<polygon fill="black" stroke="black" points="2091.4,-159.5 2101.4,-156 2091.4,-152.5 2091.4,-159.5"/>
</g>
<!-- rs_lib_eternaltwin_dinoparc_store&#45;&gt;rs_lib_eternaltwin_core -->
<g id="edge53" class="edge">
<title>rs_lib_eternaltwin_dinoparc_store&#45;&gt;rs_lib_eternaltwin_core</title>
<path fill="none" stroke="black" d="M2023.7,-293.51C2023.7,-247.63 2023.7,-91 2023.7,-91 2023.7,-91 2931.51,-91 2931.51,-91"/>
<polygon fill="black" stroke="black" points="2931.51,-94.5 2941.51,-91 2931.51,-87.5 2931.51,-94.5"/>
</g>
<!-- rs_lib_eternaltwin_dinoparc_store&#45;&gt;rs_lib_eternaltwin_db_schema -->
<g id="edge57" class="edge">
<title>rs_lib_eternaltwin_dinoparc_store&#45;&gt;rs_lib_eternaltwin_db_schema</title>
<path fill="none" stroke="black" stroke-dasharray="1,5" d="M2229.36,-294.03C2229.36,-289.31 2229.36,-285 2229.36,-285 2229.36,-285 3080.9,-285 3080.9,-285 3080.9,-285 3080.9,-253.04 3080.9,-253.04"/>
<polygon fill="black" stroke="black" points="3084.4,-253.04 3080.9,-243.04 3077.4,-253.04 3084.4,-253.04"/>
</g>
<!-- rs_lib_eternaltwin_dinoparc_store&#45;&gt;rs_lib_eternaltwin_populate -->
<g id="edge54" class="edge">
<title>rs_lib_eternaltwin_dinoparc_store&#45;&gt;rs_lib_eternaltwin_populate</title>
<path fill="none" stroke="black" d="M2131.77,-287.83C2131.77,-287.83 2131.77,-258.23 2131.77,-258.23"/>
<polygon fill="black" stroke="black" points="2135.27,-258.23 2131.77,-248.23 2128.27,-258.23 2135.27,-258.23"/>
</g>
<!-- rs_lib_eternaltwin_dinoparc_store&#45;&gt;rs_lib_eternaltwin_postgres_tools -->
<g id="edge55" class="edge">
<title>rs_lib_eternaltwin_dinoparc_store&#45;&gt;rs_lib_eternaltwin_postgres_tools</title>
<path fill="none" stroke="black" d="M2164.3,-288.5C2164.3,-275.14 2164.3,-259 2164.3,-259 2164.3,-259 2454.32,-259 2454.32,-259 2454.32,-259 2454.32,-258.29 2454.32,-258.29"/>
<polygon fill="black" stroke="black" points="2457.82,-263.42 2454.32,-253.42 2450.82,-263.42 2457.82,-263.42"/>
</g>
<!-- rs_lib_eternaltwin_email_formatter&#45;&gt;rs_lib_eternaltwin_core -->
<g id="edge58" class="edge">
<title>rs_lib_eternaltwin_email_formatter&#45;&gt;rs_lib_eternaltwin_core</title>
<path fill="none" stroke="black" d="M3991.13,-367.95C3991.13,-316.6 3991.13,-86 3991.13,-86 3991.13,-86 3149.34,-86 3149.34,-86"/>
<polygon fill="black" stroke="black" points="3149.34,-82.5 3139.34,-86 3149.34,-89.5 3149.34,-82.5"/>
</g>
<!-- rs_lib_eternaltwin_forum_store&#45;&gt;rs_lib_eternaltwin_config -->
<g id="edge62" class="edge">
<title>rs_lib_eternaltwin_forum_store&#45;&gt;rs_lib_eternaltwin_config</title>
<path fill="none" stroke="black" stroke-dasharray="1,5" d="M3399.36,-370C3399.36,-345.95 3399.36,-276 3399.36,-276 3399.36,-276 2929.95,-276 2929.95,-276 2929.95,-276 2929.95,-191.58 2929.95,-191.58"/>
<polygon fill="black" stroke="black" points="2933.45,-191.58 2929.95,-181.58 2926.45,-191.58 2933.45,-191.58"/>
</g>
<!-- rs_lib_eternaltwin_forum_store&#45;&gt;rs_lib_eternaltwin_constants -->
<g id="edge59" class="edge">
<title>rs_lib_eternaltwin_forum_store&#45;&gt;rs_lib_eternaltwin_constants</title>
<path fill="none" stroke="black" d="M3425.23,-364.87C3425.23,-321.72 3425.23,-187 3425.23,-187 3425.23,-187 2282.13,-187 2282.13,-187 2282.13,-187 2282.13,-185.98 2282.13,-185.98"/>
<polygon fill="black" stroke="black" points="2285.63,-188.35 2282.13,-178.35 2278.63,-188.35 2285.63,-188.35"/>
</g>
<!-- rs_lib_eternaltwin_forum_store&#45;&gt;rs_lib_eternaltwin_core -->
<g id="edge60" class="edge">
<title>rs_lib_eternaltwin_forum_store&#45;&gt;rs_lib_eternaltwin_core</title>
<path fill="none" stroke="black" stroke-dasharray="1,5" d="M3438.17,-363.29C3438.17,-305.47 3438.17,-97 3438.17,-97 3438.17,-97 3144.55,-97 3144.55,-97"/>
<polygon fill="black" stroke="black" points="3144.55,-93.5 3134.55,-97 3144.55,-100.5 3144.55,-93.5"/>
</g>
<!-- rs_lib_eternaltwin_forum_store&#45;&gt;rs_lib_eternaltwin_db_schema -->
<g id="edge61" class="edge">
<title>rs_lib_eternaltwin_forum_store&#45;&gt;rs_lib_eternaltwin_db_schema</title>
<path fill="none" stroke="black" d="M3412.3,-367.17C3412.3,-334.64 3412.3,-240 3412.3,-240 3412.3,-240 3324.18,-240 3324.18,-240"/>
<polygon fill="black" stroke="black" points="3324.18,-236.5 3314.18,-240 3324.18,-243.5 3324.18,-236.5"/>
</g>
<!-- rs_lib_eternaltwin_forum_store&#45;&gt;rs_lib_eternaltwin_user_store -->
<g id="edge63" class="edge">
<title>rs_lib_eternaltwin_forum_store&#45;&gt;rs_lib_eternaltwin_user_store</title>
<path fill="none" stroke="black" stroke-dasharray="1,5" d="M3578.81,-362.02C3578.81,-362.02 3578.81,-335.73 3578.81,-335.73"/>
<polygon fill="black" stroke="black" points="3582.31,-335.73 3578.81,-325.73 3575.31,-335.73 3582.31,-335.73"/>
</g>
<!-- rs_lib_eternaltwin_hammerfest_store&#45;&gt;rs_lib_eternaltwin_config -->
<g id="edge68" class="edge">
<title>rs_lib_eternaltwin_hammerfest_store&#45;&gt;rs_lib_eternaltwin_config</title>
<path fill="none" stroke="black" stroke-dasharray="1,5" d="M2617.49,-306C2709.35,-306 2809.41,-306 2809.41,-306 2809.41,-306 2809.41,-180.46 2809.41,-180.46"/>
<polygon fill="black" stroke="black" points="2812.91,-180.46 2809.41,-170.46 2805.91,-180.46 2812.91,-180.46"/>
</g>
<!-- rs_lib_eternaltwin_hammerfest_store&#45;&gt;rs_lib_eternaltwin_core -->
<g id="edge64" class="edge">
<title>rs_lib_eternaltwin_hammerfest_store&#45;&gt;rs_lib_eternaltwin_core</title>
<path fill="none" stroke="black" d="M2340.64,-296.39C2340.64,-255.86 2340.64,-101 2340.64,-101 2340.64,-101 2950.65,-101 2950.65,-101"/>
<polygon fill="black" stroke="black" points="2950.65,-104.5 2960.65,-101 2950.65,-97.5 2950.65,-104.5"/>
</g>
<!-- rs_lib_eternaltwin_hammerfest_store&#45;&gt;rs_lib_eternaltwin_db_schema -->
<g id="edge65" class="edge">
<title>rs_lib_eternaltwin_hammerfest_store&#45;&gt;rs_lib_eternaltwin_db_schema</title>
<path fill="none" stroke="black" d="M2598.38,-297C2655.36,-297 2709.39,-297 2709.39,-297 2709.39,-297 2709.39,-223 2709.39,-223 2709.39,-223 3082.51,-223 3082.51,-223"/>
<polygon fill="black" stroke="black" points="3082.51,-226.5 3092.51,-223 3082.51,-219.5 3082.51,-226.5"/>
</g>
<!-- rs_lib_eternaltwin_hammerfest_store&#45;&gt;rs_lib_eternaltwin_populate -->
<g id="edge66" class="edge">
<title>rs_lib_eternaltwin_hammerfest_store&#45;&gt;rs_lib_eternaltwin_populate</title>
<path fill="none" stroke="black" d="M2321.24,-302.13C2321.24,-302.13 2321.24,-251.75 2321.24,-251.75"/>
<polygon fill="black" stroke="black" points="2324.74,-251.75 2321.24,-241.75 2317.74,-251.75 2324.74,-251.75"/>
</g>
<!-- rs_lib_eternaltwin_hammerfest_store&#45;&gt;rs_lib_eternaltwin_postgres_tools -->
<g id="edge67" class="edge">
<title>rs_lib_eternaltwin_hammerfest_store&#45;&gt;rs_lib_eternaltwin_postgres_tools</title>
<path fill="none" stroke="black" d="M2508.6,-288.57C2508.6,-288.57 2508.6,-263.53 2508.6,-263.53"/>
<polygon fill="black" stroke="black" points="2512.1,-263.53 2508.6,-253.53 2505.1,-263.53 2512.1,-263.53"/>
</g>
<!-- rs_lib_eternaltwin_job_store&#45;&gt;rs_lib_eternaltwin_config -->
<g id="edge70" class="edge">
<title>rs_lib_eternaltwin_job_store&#45;&gt;rs_lib_eternaltwin_config</title>
<path fill="none" stroke="black" stroke-dasharray="1,5" d="M4072.12,-290.1C4072.12,-279.69 4072.12,-268 4072.12,-268 4072.12,-268 2992.73,-268 2992.73,-268 2992.73,-268 2992.73,-184.46 2992.73,-184.46"/>
<polygon fill="black" stroke="black" points="2996.23,-184.46 2992.73,-174.46 2989.23,-184.46 2996.23,-184.46"/>
</g>
<!-- rs_lib_eternaltwin_job_store&#45;&gt;rs_lib_eternaltwin_core -->
<g id="edge69" class="edge">
<title>rs_lib_eternaltwin_job_store&#45;&gt;rs_lib_eternaltwin_core</title>
<path fill="none" stroke="black" d="M4188.98,-290.25C4188.98,-239.26 4188.98,-82 4188.98,-82 4188.98,-82 3142.14,-82 3142.14,-82"/>
<polygon fill="black" stroke="black" points="3142.14,-78.5 3132.14,-82 3142.14,-85.5 3142.14,-78.5"/>
</g>
<!-- rs_lib_eternaltwin_job_store&#45;&gt;rs_lib_eternaltwin_db_schema -->
<g id="edge71" class="edge">
<title>rs_lib_eternaltwin_job_store&#45;&gt;rs_lib_eternaltwin_db_schema</title>
<path fill="none" stroke="black" stroke-dasharray="1,5" d="M4130.55,-287.52C4130.55,-264.45 4130.55,-228 4130.55,-228 4130.55,-228 3324.13,-228 3324.13,-228"/>
<polygon fill="black" stroke="black" points="3324.13,-224.5 3314.13,-228 3324.13,-231.5 3324.13,-224.5"/>
</g>
<!-- rs_lib_eternaltwin_link_store&#45;&gt;rs_lib_eternaltwin_config -->
<g id="edge73" class="edge">
<title>rs_lib_eternaltwin_link_store&#45;&gt;rs_lib_eternaltwin_config</title>
<path fill="none" stroke="black" stroke-dasharray="1,5" d="M2389.55,-359.76C2389.55,-352.57 2389.55,-346 2389.55,-346 2389.55,-346 2811.18,-346 2811.18,-346 2811.18,-346 2811.18,-181.42 2811.18,-181.42"/>
<polygon fill="black" stroke="black" points="2814.68,-181.42 2811.18,-171.42 2807.68,-181.42 2814.68,-181.42"/>
</g>
<!-- rs_lib_eternaltwin_link_store&#45;&gt;rs_lib_eternaltwin_core -->
<g id="edge72" class="edge">
<title>rs_lib_eternaltwin_link_store&#45;&gt;rs_lib_eternaltwin_core</title>
<path fill="none" stroke="black" d="M2284.3,-366.65C2284.3,-337.82 2284.3,-264 2284.3,-264 2284.3,-264 3024.93,-264 3024.93,-264 3024.93,-264 3024.93,-119.48 3024.93,-119.48"/>
<polygon fill="black" stroke="black" points="3028.43,-119.48 3024.93,-109.48 3021.43,-119.48 3028.43,-119.48"/>
</g>
<!-- rs_lib_eternaltwin_link_store&#45;&gt;rs_lib_eternaltwin_db_schema -->
<g id="edge74" class="edge">
<title>rs_lib_eternaltwin_link_store&#45;&gt;rs_lib_eternaltwin_db_schema</title>
<path fill="none" stroke="black" stroke-dasharray="1,5" d="M2425.35,-361.05C2425.35,-355.63 2425.35,-351 2425.35,-351 2425.35,-351 3118.91,-351 3118.91,-351 3118.91,-351 3118.91,-259.86 3118.91,-259.86"/>
<polygon fill="black" stroke="black" points="3122.41,-259.86 3118.91,-249.86 3115.41,-259.86 3122.41,-259.86"/>
</g>
<!-- rs_lib_eternaltwin_link_store&#45;&gt;rs_lib_eternaltwin_dinoparc_store -->
<g id="edge75" class="edge">
<title>rs_lib_eternaltwin_link_store&#45;&gt;rs_lib_eternaltwin_dinoparc_store</title>
<path fill="none" stroke="black" stroke-dasharray="1,5" d="M2273.09,-369.17C2273.09,-349.95 2273.09,-306 2273.09,-306 2273.09,-306 2271.98,-306 2271.98,-306"/>
<polygon fill="black" stroke="black" points="2273.44,-302.5 2263.44,-306 2273.44,-309.5 2273.44,-302.5"/>
</g>
<!-- rs_lib_eternaltwin_link_store&#45;&gt;rs_lib_eternaltwin_hammerfest_store -->
<g id="edge76" class="edge">
<title>rs_lib_eternaltwin_link_store&#45;&gt;rs_lib_eternaltwin_hammerfest_store</title>
<path fill="none" stroke="black" stroke-dasharray="1,5" d="M2353.74,-360.2C2353.74,-360.2 2353.74,-329.48 2353.74,-329.48"/>
<polygon fill="black" stroke="black" points="2357.24,-329.48 2353.74,-319.48 2350.24,-329.48 2357.24,-329.48"/>
</g>
<!-- rs_lib_eternaltwin_link_store&#45;&gt;rs_lib_eternaltwin_user_store -->
<g id="edge77" class="edge">
<title>rs_lib_eternaltwin_link_store&#45;&gt;rs_lib_eternaltwin_user_store</title>
<path fill="none" stroke="black" stroke-dasharray="1,5" d="M2461.16,-364.89C2461.16,-359.72 2461.16,-355 2461.16,-355 2461.16,-355 3514.96,-355 3514.96,-355 3514.96,-355 3514.96,-333.83 3514.96,-333.83"/>
<polygon fill="black" stroke="black" points="3518.46,-333.83 3514.96,-323.83 3511.46,-333.83 3518.46,-333.83"/>
</g>
<!-- rs_lib_eternaltwin_mailer&#45;&gt;rs_lib_eternaltwin_config -->
<g id="edge79" class="edge">
<title>rs_lib_eternaltwin_mailer&#45;&gt;rs_lib_eternaltwin_config</title>
<path fill="none" stroke="black" stroke-dasharray="1,5" d="M3770.01,-360.81C3770.01,-330.56 3770.01,-271 3770.01,-271 3770.01,-271 2971.81,-271 2971.81,-271 2971.81,-271 2971.81,-188.21 2971.81,-188.21"/>
<polygon fill="black" stroke="black" points="2975.31,-188.21 2971.81,-178.21 2968.31,-188.21 2975.31,-188.21"/>
</g>
<!-- rs_lib_eternaltwin_mailer&#45;&gt;rs_lib_eternaltwin_core -->
<g id="edge78" class="edge">
<title>rs_lib_eternaltwin_mailer&#45;&gt;rs_lib_eternaltwin_core</title>
<path fill="none" stroke="black" d="M3841.09,-360.85C3841.09,-298.85 3841.09,-90 3841.09,-90 3841.09,-90 3151.9,-90 3151.9,-90"/>
<polygon fill="black" stroke="black" points="3151.9,-86.5 3141.9,-90 3151.9,-93.5 3151.9,-86.5"/>
</g>
<!-- rs_lib_eternaltwin_mt_dns&#45;&gt;rs_lib_eternaltwin_core -->
<g id="edge80" class="edge">
<title>rs_lib_eternaltwin_mt_dns&#45;&gt;rs_lib_eternaltwin_core</title>
<path fill="none" stroke="black" d="M4884.55,-431.66C4884.55,-356.37 4884.55,-75 4884.55,-75 4884.55,-75 3110.75,-75 3110.75,-75"/>
<polygon fill="black" stroke="black" points="3110.75,-71.5 3100.75,-75 3110.75,-78.5 3110.75,-71.5"/>
</g>
<!-- rs_lib_eternaltwin_oauth_client&#45;&gt;rs_lib_eternaltwin_core -->
<g id="edge81" class="edge">
<title>rs_lib_eternaltwin_oauth_client&#45;&gt;rs_lib_eternaltwin_core</title>
<path fill="none" stroke="black" d="M4400.55,-359.75C4400.55,-294.83 4400.55,-79 4400.55,-79 4400.55,-79 3132.5,-79 3132.5,-79"/>
<polygon fill="black" stroke="black" points="3132.5,-75.5 3122.5,-79 3132.5,-82.5 3132.5,-75.5"/>
</g>
<!-- rs_lib_eternaltwin_oauth_provider_store&#45;&gt;rs_lib_eternaltwin_config -->
<g id="edge86" class="edge">
<title>rs_lib_eternaltwin_oauth_provider_store&#45;&gt;rs_lib_eternaltwin_config</title>
<path fill="none" stroke="black" stroke-dasharray="1,5" d="M1749.64,-288.03C1749.64,-259.73 1749.64,-208 1749.64,-208 1749.64,-208 2805.88,-208 2805.88,-208 2805.88,-208 2805.88,-178.79 2805.88,-178.79"/>
<polygon fill="black" stroke="black" points="2809.38,-178.79 2805.88,-168.79 2802.38,-178.79 2809.38,-178.79"/>
</g>
<!-- rs_lib_eternaltwin_oauth_provider_store&#45;&gt;rs_lib_eternaltwin_constants -->
<g id="edge82" class="edge">
<title>rs_lib_eternaltwin_oauth_provider_store&#45;&gt;rs_lib_eternaltwin_constants</title>
<path fill="none" stroke="black" d="M1720.78,-287.67C1720.78,-250.14 1720.78,-168 1720.78,-168 1720.78,-168 2091.14,-168 2091.14,-168"/>
<polygon fill="black" stroke="black" points="2091.14,-171.5 2101.14,-168 2091.14,-164.5 2091.14,-171.5"/>
</g>
<!-- rs_lib_eternaltwin_oauth_provider_store&#45;&gt;rs_lib_eternaltwin_core -->
<g id="edge83" class="edge">
<title>rs_lib_eternaltwin_oauth_provider_store&#45;&gt;rs_lib_eternaltwin_core</title>
<path fill="none" stroke="black" d="M1836.22,-292.03C1836.22,-243.92 1836.22,-88 1836.22,-88 1836.22,-88 2931.91,-88 2931.91,-88"/>
<polygon fill="black" stroke="black" points="2931.91,-91.5 2941.91,-88 2931.91,-84.5 2931.91,-91.5"/>
</g>
<!-- rs_lib_eternaltwin_oauth_provider_store&#45;&gt;rs_lib_eternaltwin_db_schema -->
<g id="edge87" class="edge">
<title>rs_lib_eternaltwin_oauth_provider_store&#45;&gt;rs_lib_eternaltwin_db_schema</title>
<path fill="none" stroke="black" stroke-dasharray="1,5" d="M1807.36,-289.78C1807.36,-285.97 1807.36,-283 1807.36,-283 1807.36,-283 3075.45,-283 3075.45,-283 3075.45,-283 3075.45,-251.13 3075.45,-251.13"/>
<polygon fill="black" stroke="black" points="3078.95,-251.13 3075.45,-241.13 3071.95,-251.13 3078.95,-251.13"/>
</g>
<!-- rs_lib_eternaltwin_oauth_provider_store&#45;&gt;rs_lib_eternaltwin_password -->
<g id="edge88" class="edge">
<title>rs_lib_eternaltwin_oauth_provider_store&#45;&gt;rs_lib_eternaltwin_password</title>
<path fill="none" stroke="black" stroke-dasharray="1,5" d="M1631.54,-291.78C1631.54,-291.78 1631.54,-261.46 1631.54,-261.46"/>
<polygon fill="black" stroke="black" points="1635.04,-261.46 1631.54,-251.46 1628.04,-261.46 1635.04,-261.46"/>
</g>
<!-- rs_lib_eternaltwin_oauth_provider_store&#45;&gt;rs_lib_eternaltwin_populate -->
<g id="edge84" class="edge">
<title>rs_lib_eternaltwin_oauth_provider_store&#45;&gt;rs_lib_eternaltwin_populate</title>
<path fill="none" stroke="black" d="M1865.08,-295.38C1865.08,-275.35 1865.08,-234 1865.08,-234 1865.08,-234 2087.45,-234 2087.45,-234"/>
<polygon fill="black" stroke="black" points="2087.45,-237.5 2097.45,-234 2087.45,-230.5 2087.45,-237.5"/>
</g>
<!-- rs_lib_eternaltwin_oauth_provider_store&#45;&gt;rs_lib_eternaltwin_postgres_tools -->
<g id="edge85" class="edge">
<title>rs_lib_eternaltwin_oauth_provider_store&#45;&gt;rs_lib_eternaltwin_postgres_tools</title>
<path fill="none" stroke="black" d="M1778.5,-288.51C1778.5,-274.09 1778.5,-256 1778.5,-256 1778.5,-256 2400.03,-256 2400.03,-256 2400.03,-256 2400.03,-255.26 2400.03,-255.26"/>
<polygon fill="black" stroke="black" points="2403.53,-260.07 2400.03,-250.07 2396.53,-260.07 2403.53,-260.07"/>
</g>
<!-- rs_lib_eternaltwin_password&#45;&gt;rs_lib_eternaltwin_core -->
<g id="edge89" class="edge">
<title>rs_lib_eternaltwin_password&#45;&gt;rs_lib_eternaltwin_core</title>
<path fill="none" stroke="black" d="M1652.41,-220.25C1652.41,-183.36 1652.41,-85 1652.41,-85 1652.41,-85 2934.83,-85 2934.83,-85"/>
<polygon fill="black" stroke="black" points="2934.83,-88.5 2944.83,-85 2934.83,-81.5 2934.83,-88.5"/>
</g>
<!-- rs_lib_eternaltwin_populate&#45;&gt;rs_lib_eternaltwin_constants -->
<g id="edge90" class="edge">
<title>rs_lib_eternaltwin_populate&#45;&gt;rs_lib_eternaltwin_constants</title>
<path fill="none" stroke="black" d="M2190.69,-216.2C2190.69,-216.2 2190.69,-191.61 2190.69,-191.61"/>
<polygon fill="black" stroke="black" points="2194.19,-191.61 2190.69,-181.61 2187.19,-191.61 2194.19,-191.61"/>
</g>
<!-- rs_lib_eternaltwin_populate&#45;&gt;rs_lib_eternaltwin_core -->
<g id="edge91" class="edge">
<title>rs_lib_eternaltwin_populate&#45;&gt;rs_lib_eternaltwin_core</title>
<path fill="none" stroke="black" d="M2328.26,-234C2332.84,-234 2335.52,-234 2335.52,-234 2335.52,-234 2335.52,-98 2335.52,-98 2335.52,-98 2940.97,-98 2940.97,-98"/>
<polygon fill="black" stroke="black" points="2940.97,-101.5 2950.97,-98 2940.97,-94.5 2940.97,-101.5"/>
</g>
<!-- rs_lib_eternaltwin_rest&#45;&gt;rs_lib_eternaltwin_auth_store -->
<g id="edge92" class="edge">
<title>rs_lib_eternaltwin_rest&#45;&gt;rs_lib_eternaltwin_auth_store</title>
<path fill="none" stroke="black" d="M3155.72,-506.04C3155.72,-506.04 3155.72,-407.34 3155.72,-407.34"/>
<polygon fill="black" stroke="black" points="3159.22,-407.34 3155.72,-397.34 3152.22,-407.34 3159.22,-407.34"/>
</g>
<!-- rs_lib_eternaltwin_rest&#45;&gt;rs_lib_eternaltwin_config -->
<g id="edge93" class="edge">
<title>rs_lib_eternaltwin_rest&#45;&gt;rs_lib_eternaltwin_config</title>
<path fill="none" stroke="black" d="M3108.01,-503.68C3108.01,-471.46 3108.01,-408 3108.01,-408 3108.01,-408 2821.77,-408 2821.77,-408 2821.77,-408 2821.77,-184.4 2821.77,-184.4"/>
<polygon fill="black" stroke="black" points="2825.27,-184.4 2821.77,-174.4 2818.27,-184.4 2825.27,-184.4"/>
</g>
<!-- rs_lib_eternaltwin_rest&#45;&gt;rs_lib_eternaltwin_core -->
<g id="edge94" class="edge">
<title>rs_lib_eternaltwin_rest&#45;&gt;rs_lib_eternaltwin_core</title>
<path fill="none" stroke="black" d="M3170.48,-508C3240.4,-508 3343.56,-508 3343.56,-508 3343.56,-508 3343.56,-104 3343.56,-104 3343.56,-104 3117.48,-104 3117.48,-104"/>
<polygon fill="black" stroke="black" points="3117.48,-100.5 3107.48,-104 3117.48,-107.5 3117.48,-100.5"/>
</g>
<!-- rs_lib_eternaltwin_rest&#45;&gt;rs_lib_eternaltwin_dinoparc_store -->
<g id="edge95" class="edge">
<title>rs_lib_eternaltwin_rest&#45;&gt;rs_lib_eternaltwin_dinoparc_store</title>
<path fill="none" stroke="black" d="M3011.34,-522C2758.49,-522 2094.6,-522 2094.6,-522 2094.6,-522 2094.6,-335.56 2094.6,-335.56"/>
<polygon fill="black" stroke="black" points="2098.1,-335.56 2094.6,-325.56 2091.1,-335.56 2098.1,-335.56"/>
</g>
<!-- rs_lib_eternaltwin_rest&#45;&gt;rs_lib_eternaltwin_email_formatter -->
<g id="edge96" class="edge">
<title>rs_lib_eternaltwin_rest&#45;&gt;rs_lib_eternaltwin_email_formatter</title>
<path fill="none" stroke="black" d="M3188.43,-532C3427.07,-532 4111.55,-532 4111.55,-532 4111.55,-532 4111.55,-407.78 4111.55,-407.78"/>
<polygon fill="black" stroke="black" points="4115.05,-407.78 4111.55,-397.78 4108.05,-407.78 4115.05,-407.78"/>
</g>
<!-- rs_lib_eternaltwin_rest&#45;&gt;rs_lib_eternaltwin_forum_store -->
<g id="edge97" class="edge">
<title>rs_lib_eternaltwin_rest&#45;&gt;rs_lib_eternaltwin_forum_store</title>
<path fill="none" stroke="black" d="M3198.59,-516C3286.67,-516 3406.93,-516 3406.93,-516 3406.93,-516 3406.93,-399.44 3406.93,-399.44"/>
<polygon fill="black" stroke="black" points="3410.43,-399.44 3406.93,-389.44 3403.43,-399.44 3410.43,-399.44"/>
</g>
<!-- rs_lib_eternaltwin_rest&#45;&gt;rs_lib_eternaltwin_hammerfest_store -->
<g id="edge98" class="edge">
<title>rs_lib_eternaltwin_rest&#45;&gt;rs_lib_eternaltwin_hammerfest_store</title>
<path fill="none" stroke="black" d="M3020.96,-514C2858.67,-514 2524.98,-514 2524.98,-514 2524.98,-514 2524.98,-334.54 2524.98,-334.54"/>
<polygon fill="black" stroke="black" points="2528.48,-334.54 2524.98,-324.54 2521.48,-334.54 2528.48,-334.54"/>
</g>
<!-- rs_lib_eternaltwin_rest&#45;&gt;rs_lib_eternaltwin_job_store -->
<g id="edge99" class="edge">
<title>rs_lib_eternaltwin_rest&#45;&gt;rs_lib_eternaltwin_job_store</title>
<path fill="none" stroke="black" d="M3198.42,-528C3412.57,-528 3930.98,-528 3930.98,-528 3930.98,-528 3930.98,-300 3930.98,-300 3930.98,-300 4008.16,-300 4008.16,-300"/>
<polygon fill="black" stroke="black" points="4008.16,-303.5 4018.16,-300 4008.16,-296.5 4008.16,-303.5"/>
</g>
<!-- rs_lib_eternaltwin_rest&#45;&gt;rs_lib_eternaltwin_link_store -->
<g id="edge100" class="edge">
<title>rs_lib_eternaltwin_rest&#45;&gt;rs_lib_eternaltwin_link_store</title>
<path fill="none" stroke="black" d="M3013.55,-518C2822.73,-518 2407.87,-518 2407.87,-518 2407.87,-518 2407.87,-407.24 2407.87,-407.24"/>
<polygon fill="black" stroke="black" points="2411.37,-407.24 2407.87,-397.24 2404.37,-407.24 2411.37,-407.24"/>
</g>
<!-- rs_lib_eternaltwin_rest&#45;&gt;rs_lib_eternaltwin_log -->
<g id="edge101" class="edge">
<title>rs_lib_eternaltwin_rest&#45;&gt;rs_lib_eternaltwin_log</title>
<path fill="none" stroke="black" d="M3026.71,-532C2694.13,-532 1448.93,-532 1448.93,-532 1448.93,-532 1448.93,-185.82 1448.93,-185.82"/>
<polygon fill="black" stroke="black" points="1452.43,-185.82 1448.93,-175.82 1445.43,-185.82 1452.43,-185.82"/>
</g>
<!-- rs_lib_eternaltwin_rest&#45;&gt;rs_lib_eternaltwin_mailer -->
<g id="edge102" class="edge">
<title>rs_lib_eternaltwin_rest&#45;&gt;rs_lib_eternaltwin_mailer</title>
<path fill="none" stroke="black" d="M3203.32,-524C3388.7,-524 3778.48,-524 3778.48,-524 3778.48,-524 3778.48,-407.12 3778.48,-407.12"/>
<polygon fill="black" stroke="black" points="3781.98,-407.12 3778.48,-397.12 3774.98,-407.12 3781.98,-407.12"/>
</g>
<!-- rs_lib_eternaltwin_rest&#45;&gt;rs_lib_eternaltwin_oauth_client -->
<g id="edge103" class="edge">
<title>rs_lib_eternaltwin_rest&#45;&gt;rs_lib_eternaltwin_oauth_client</title>
<path fill="none" stroke="black" d="M3170.35,-536C3429.29,-536 4400.55,-536 4400.55,-536 4400.55,-536 4400.55,-407.95 4400.55,-407.95"/>
<polygon fill="black" stroke="black" points="4404.05,-407.95 4400.55,-397.95 4397.05,-407.95 4404.05,-407.95"/>
</g>
<!-- rs_lib_eternaltwin_rest&#45;&gt;rs_lib_eternaltwin_oauth_provider_store -->
<g id="edge104" class="edge">
<title>rs_lib_eternaltwin_rest&#45;&gt;rs_lib_eternaltwin_oauth_provider_store</title>
<path fill="none" stroke="black" d="M3012.5,-525C2701.26,-525 1732.55,-525 1732.55,-525 1732.55,-525 1732.55,-335.81 1732.55,-335.81"/>
<polygon fill="black" stroke="black" points="1736.05,-335.81 1732.55,-325.81 1729.05,-335.81 1736.05,-335.81"/>
</g>
<!-- rs_lib_eternaltwin_rest&#45;&gt;rs_lib_eternaltwin_password -->
<g id="edge105" class="edge">
<title>rs_lib_eternaltwin_rest&#45;&gt;rs_lib_eternaltwin_password</title>
<path fill="none" stroke="black" d="M3018.47,-529C2682.91,-529 1514.17,-529 1514.17,-529 1514.17,-529 1514.17,-261.37 1514.17,-261.37"/>
<polygon fill="black" stroke="black" points="1517.67,-261.37 1514.17,-251.37 1510.67,-261.37 1517.67,-261.37"/>
</g>
<!-- rs_lib_eternaltwin_rest&#45;&gt;rs_lib_eternaltwin_serde_tools -->
<g id="edge106" class="edge">
<title>rs_lib_eternaltwin_rest&#45;&gt;rs_lib_eternaltwin_serde_tools</title>
<path fill="none" stroke="black" d="M3188.47,-512C3261.6,-512 3357.85,-512 3357.85,-512 3357.85,-512 3357.85,-18 3357.85,-18 3357.85,-18 3178.07,-18 3178.07,-18"/>
<polygon fill="black" stroke="black" points="3178.07,-14.5 3168.07,-18 3178.07,-21.5 3178.07,-14.5"/>
</g>
<!-- rs_lib_eternaltwin_rest&#45;&gt;rs_lib_eternaltwin_services -->
<g id="edge107" class="edge">
<title>rs_lib_eternaltwin_rest&#45;&gt;rs_lib_eternaltwin_services</title>
<path fill="none" stroke="black" d="M3060.3,-506.1C3060.3,-487.44 3060.3,-459 3060.3,-459 3060.3,-459 2928.39,-459 2928.39,-459"/>
<polygon fill="black" stroke="black" points="2928.39,-455.5 2918.39,-459 2928.39,-462.5 2928.39,-455.5"/>
</g>
<!-- rs_lib_eternaltwin_rest&#45;&gt;rs_lib_eternaltwin_token_store -->
<g id="edge110" class="edge">
<title>rs_lib_eternaltwin_rest&#45;&gt;rs_lib_eternaltwin_token_store</title>
<path fill="none" stroke="black" stroke-dasharray="1,5" d="M3030.1,-511C2909.53,-511 2690.61,-511 2690.61,-511 2690.61,-511 2690.61,-407.73 2690.61,-407.73"/>
<polygon fill="black" stroke="black" points="2694.11,-407.73 2690.61,-397.73 2687.11,-407.73 2694.11,-407.73"/>
</g>
<!-- rs_lib_eternaltwin_rest&#45;&gt;rs_lib_eternaltwin_twinoid_store -->
<g id="edge108" class="edge">
<title>rs_lib_eternaltwin_rest&#45;&gt;rs_lib_eternaltwin_twinoid_store</title>
<path fill="none" stroke="black" d="M3051.41,-507C3022.79,-507 2993.94,-507 2993.94,-507 2993.94,-507 2993.94,-335.35 2993.94,-335.35"/>
<polygon fill="black" stroke="black" points="2997.44,-335.35 2993.94,-325.35 2990.44,-335.35 2997.44,-335.35"/>
</g>
<!-- rs_lib_eternaltwin_rest&#45;&gt;rs_lib_eternaltwin_user_store -->
<g id="edge109" class="edge">
<title>rs_lib_eternaltwin_rest&#45;&gt;rs_lib_eternaltwin_user_store</title>
<path fill="none" stroke="black" d="M3203.14,-520C3363.02,-520 3667.33,-520 3667.33,-520 3667.33,-520 3667.33,-328.72 3667.33,-328.72"/>
<polygon fill="black" stroke="black" points="3670.83,-328.72 3667.33,-318.72 3663.83,-328.72 3670.83,-328.72"/>
</g>
<!-- rs_lib_eternaltwin_services&#45;&gt;rs_lib_eternaltwin_auth_store -->
<g id="edge114" class="edge">
<title>rs_lib_eternaltwin_services&#45;&gt;rs_lib_eternaltwin_auth_store</title>
<path fill="none" stroke="black" stroke-dasharray="1,5" d="M2904.43,-438.13C2904.43,-418.15 2904.43,-380 2904.43,-380 2904.43,-380 3001.44,-380 3001.44,-380"/>
<polygon fill="black" stroke="black" points="3001.44,-383.5 3011.44,-380 3001.44,-376.5 3001.44,-383.5"/>
</g>
<!-- rs_lib_eternaltwin_services&#45;&gt;rs_lib_eternaltwin_config -->
<g id="edge115" class="edge">
<title>rs_lib_eternaltwin_services&#45;&gt;rs_lib_eternaltwin_config</title>
<path fill="none" stroke="black" stroke-dasharray="1,5" d="M2814.71,-431.55C2814.71,-431.55 2814.71,-182.49 2814.71,-182.49"/>
<polygon fill="black" stroke="black" points="2818.21,-182.49 2814.71,-172.49 2811.21,-182.49 2818.21,-182.49"/>
</g>
<!-- rs_lib_eternaltwin_services&#45;&gt;rs_lib_eternaltwin_constants -->
<g id="edge111" class="edge">
<title>rs_lib_eternaltwin_services&#45;&gt;rs_lib_eternaltwin_constants</title>
<path fill="none" stroke="black" d="M2807.64,-431.59C2807.64,-372.89 2807.64,-194 2807.64,-194 2807.64,-194 2236.41,-194 2236.41,-194 2236.41,-194 2236.41,-191.38 2236.41,-191.38"/>
<polygon fill="black" stroke="black" points="2239.91,-191.38 2236.41,-181.38 2232.91,-191.38 2239.91,-191.38"/>
</g>
<!-- rs_lib_eternaltwin_services&#45;&gt;rs_lib_eternaltwin_core -->
<g id="edge112" class="edge">
<title>rs_lib_eternaltwin_services&#45;&gt;rs_lib_eternaltwin_core</title>
<path fill="none" stroke="black" d="M2820.01,-431.68C2820.01,-385.14 2820.01,-266 2820.01,-266 2820.01,-266 3036.2,-266 3036.2,-266 3036.2,-266 3036.2,-119.69 3036.2,-119.69"/>
<polygon fill="black" stroke="black" points="3039.7,-119.69 3036.2,-109.69 3032.7,-119.69 3039.7,-119.69"/>
</g>
<!-- rs_lib_eternaltwin_services&#45;&gt;rs_lib_eternaltwin_db_schema -->
<g id="edge116" class="edge">
<title>rs_lib_eternaltwin_services&#45;&gt;rs_lib_eternaltwin_db_schema</title>
<path fill="none" stroke="black" stroke-dasharray="1,5" d="M2818.24,-431.84C2818.24,-380.33 2818.24,-237 2818.24,-237 2818.24,-237 3059.82,-237 3059.82,-237"/>
<polygon fill="black" stroke="black" points="3059.82,-240.5 3069.82,-237 3059.82,-233.5 3059.82,-240.5"/>
</g>
<!-- rs_lib_eternaltwin_services&#45;&gt;rs_lib_eternaltwin_dinoparc_store -->
<g id="edge117" class="edge">
<title>rs_lib_eternaltwin_services&#45;&gt;rs_lib_eternaltwin_dinoparc_store</title>
<path fill="none" stroke="black" stroke-dasharray="1,5" d="M2705.98,-450C2515.07,-450 2148.3,-450 2148.3,-450 2148.3,-450 2148.3,-335.46 2148.3,-335.46"/>
<polygon fill="black" stroke="black" points="2151.8,-335.46 2148.3,-325.46 2144.8,-335.46 2151.8,-335.46"/>
</g>
<!-- rs_lib_eternaltwin_services&#45;&gt;rs_lib_eternaltwin_email_formatter -->
<g id="edge118" class="edge">
<title>rs_lib_eternaltwin_services&#45;&gt;rs_lib_eternaltwin_email_formatter</title>
<path fill="none" stroke="black" stroke-dasharray="1,5" d="M2931.28,-450C3233.67,-450 4040.07,-450 4040.07,-450 4040.07,-450 4040.07,-405.49 4040.07,-405.49"/>
<polygon fill="black" stroke="black" points="4043.57,-405.49 4040.07,-395.49 4036.57,-405.49 4043.57,-405.49"/>
</g>
<!-- rs_lib_eternaltwin_services&#45;&gt;rs_lib_eternaltwin_forum_store -->
<g id="edge119" class="edge">
<title>rs_lib_eternaltwin_services&#45;&gt;rs_lib_eternaltwin_forum_store</title>
<path fill="none" stroke="black" stroke-dasharray="1,5" d="M2892.06,-436C3047.77,-436 3396.68,-436 3396.68,-436 3396.68,-436 3396.68,-396.63 3396.68,-396.63"/>
<polygon fill="black" stroke="black" points="3400.18,-396.63 3396.68,-386.63 3393.18,-396.63 3400.18,-396.63"/>
</g>
<!-- rs_lib_eternaltwin_services&#45;&gt;rs_lib_eternaltwin_hammerfest_store -->
<g id="edge120" class="edge">
<title>rs_lib_eternaltwin_services&#45;&gt;rs_lib_eternaltwin_hammerfest_store</title>
<path fill="none" stroke="black" stroke-dasharray="1,5" d="M2732.77,-438C2650.59,-438 2538.98,-438 2538.98,-438 2538.98,-438 2538.98,-333.7 2538.98,-333.7"/>
<polygon fill="black" stroke="black" points="2542.48,-333.7 2538.98,-323.7 2535.48,-333.7 2542.48,-333.7"/>
</g>
<!-- rs_lib_eternaltwin_services&#45;&gt;rs_lib_eternaltwin_link_store -->
<g id="edge121" class="edge">
<title>rs_lib_eternaltwin_services&#45;&gt;rs_lib_eternaltwin_link_store</title>
<path fill="none" stroke="black" stroke-dasharray="1,5" d="M2712.16,-444C2604.06,-444 2452.42,-444 2452.42,-444 2452.42,-444 2452.42,-403.83 2452.42,-403.83"/>
<polygon fill="black" stroke="black" points="2455.92,-403.83 2452.42,-393.83 2448.92,-403.83 2455.92,-403.83"/>
</g>
<!-- rs_lib_eternaltwin_services&#45;&gt;rs_lib_eternaltwin_mailer -->
<g id="edge122" class="edge">
<title>rs_lib_eternaltwin_services&#45;&gt;rs_lib_eternaltwin_mailer</title>
<path fill="none" stroke="black" stroke-dasharray="1,5" d="M2926.81,-445C3170.04,-445 3738.7,-445 3738.7,-445 3738.7,-445 3738.7,-403.72 3738.7,-403.72"/>
<polygon fill="black" stroke="black" points="3742.2,-403.72 3738.7,-393.72 3735.2,-403.72 3742.2,-403.72"/>
</g>
<!-- rs_lib_eternaltwin_services&#45;&gt;rs_lib_eternaltwin_oauth_client -->
<g id="edge113" class="edge">
<title>rs_lib_eternaltwin_services&#45;&gt;rs_lib_eternaltwin_oauth_client</title>
<path fill="none" stroke="black" d="M2928.63,-454C3277.62,-454 4336.49,-454 4336.49,-454 4336.49,-454 4336.49,-405.26 4336.49,-405.26"/>
<polygon fill="black" stroke="black" points="4339.99,-405.26 4336.49,-395.26 4332.99,-405.26 4339.99,-405.26"/>
</g>
<!-- rs_lib_eternaltwin_services&#45;&gt;rs_lib_eternaltwin_oauth_provider_store -->
<g id="edge123" class="edge">
<title>rs_lib_eternaltwin_services&#45;&gt;rs_lib_eternaltwin_oauth_provider_store</title>
<path fill="none" stroke="black" stroke-dasharray="1,5" d="M2711.91,-456C2453.19,-456 1813.24,-456 1813.24,-456 1813.24,-456 1813.24,-333.28 1813.24,-333.28"/>
<polygon fill="black" stroke="black" points="1816.74,-333.28 1813.24,-323.28 1809.74,-333.28 1816.74,-333.28"/>
</g>
<!-- rs_lib_eternaltwin_services&#45;&gt;rs_lib_eternaltwin_password -->
<g id="edge124" class="edge">
<title>rs_lib_eternaltwin_services&#45;&gt;rs_lib_eternaltwin_password</title>
<path fill="none" stroke="black" stroke-dasharray="1,5" d="M2732.85,-462C2446.78,-462 1542.66,-462 1542.66,-462 1542.66,-462 1542.66,-263.03 1542.66,-263.03"/>
<polygon fill="black" stroke="black" points="1546.16,-263.03 1542.66,-253.03 1539.16,-263.03 1546.16,-263.03"/>
</g>
<!-- rs_lib_eternaltwin_services&#45;&gt;rs_lib_eternaltwin_token_store -->
<g id="edge125" class="edge">
<title>rs_lib_eternaltwin_services&#45;&gt;rs_lib_eternaltwin_token_store</title>
<path fill="none" stroke="black" stroke-dasharray="1,5" d="M2755.2,-434.73C2755.2,-434.73 2755.2,-403.78 2755.2,-403.78"/>
<polygon fill="black" stroke="black" points="2758.7,-403.78 2755.2,-393.78 2751.7,-403.78 2758.7,-403.78"/>
</g>
<!-- rs_lib_eternaltwin_services&#45;&gt;rs_lib_eternaltwin_twinoid_store -->
<g id="edge126" class="edge">
<title>rs_lib_eternaltwin_services&#45;&gt;rs_lib_eternaltwin_twinoid_store</title>
<path fill="none" stroke="black" stroke-dasharray="1,5" d="M2878.06,-434.32C2878.06,-434.32 2878.06,-331.89 2878.06,-331.89"/>
<polygon fill="black" stroke="black" points="2881.56,-331.89 2878.06,-321.89 2874.56,-331.89 2881.56,-331.89"/>
</g>
<!-- rs_lib_eternaltwin_services&#45;&gt;rs_lib_eternaltwin_user_store -->
<g id="edge127" class="edge">
<title>rs_lib_eternaltwin_services&#45;&gt;rs_lib_eternaltwin_user_store</title>
<path fill="none" stroke="black" stroke-dasharray="1,5" d="M2916.96,-441C3138.07,-441 3655,-441 3655,-441 3655,-441 3655,-330.46 3655,-330.46"/>
<polygon fill="black" stroke="black" points="3658.5,-330.46 3655,-320.46 3651.5,-330.46 3658.5,-330.46"/>
</g>
<!-- rs_lib_eternaltwin_token_store&#45;&gt;rs_lib_eternaltwin_config -->
<g id="edge130" class="edge">
<title>rs_lib_eternaltwin_token_store&#45;&gt;rs_lib_eternaltwin_config</title>
<path fill="none" stroke="black" stroke-dasharray="1,5" d="M2791.94,-370C2804.54,-370 2812.94,-370 2812.94,-370 2812.94,-370 2812.94,-181.93 2812.94,-181.93"/>
<polygon fill="black" stroke="black" points="2816.44,-181.92 2812.94,-171.93 2809.44,-181.93 2816.44,-181.92"/>
</g>
<!-- rs_lib_eternaltwin_token_store&#45;&gt;rs_lib_eternaltwin_core -->
<g id="edge128" class="edge">
<title>rs_lib_eternaltwin_token_store&#45;&gt;rs_lib_eternaltwin_core</title>
<path fill="none" stroke="black" d="M2740.07,-362.08C2740.07,-303.61 2740.07,-104 2740.07,-104 2740.07,-104 2965.36,-104 2965.36,-104"/>
<polygon fill="black" stroke="black" points="2965.36,-107.5 2975.36,-104 2965.36,-100.5 2965.36,-107.5"/>
</g>
<!-- rs_lib_eternaltwin_token_store&#45;&gt;rs_lib_eternaltwin_db_schema -->
<g id="edge131" class="edge">
<title>rs_lib_eternaltwin_token_store&#45;&gt;rs_lib_eternaltwin_db_schema</title>
<path fill="none" stroke="black" stroke-dasharray="1,5" d="M2770.75,-365.64C2770.75,-330.07 2770.75,-230 2770.75,-230 2770.75,-230 3061.02,-230 3061.02,-230"/>
<polygon fill="black" stroke="black" points="3061.02,-233.5 3071.02,-230 3061.02,-226.5 3061.02,-233.5"/>
</g>
<!-- rs_lib_eternaltwin_token_store&#45;&gt;rs_lib_eternaltwin_dinoparc_store -->
<g id="edge132" class="edge">
<title>rs_lib_eternaltwin_token_store&#45;&gt;rs_lib_eternaltwin_dinoparc_store</title>
<path fill="none" stroke="black" stroke-dasharray="1,5" d="M2569.03,-368.92C2569.03,-358.25 2569.03,-342 2569.03,-342 2569.03,-342 2201.99,-342 2201.99,-342 2201.99,-342 2201.99,-332.57 2201.99,-332.57"/>
<polygon fill="black" stroke="black" points="2205.49,-332.57 2201.99,-322.57 2198.49,-332.57 2205.49,-332.57"/>
</g>
<!-- rs_lib_eternaltwin_token_store&#45;&gt;rs_lib_eternaltwin_hammerfest_store -->
<g id="edge133" class="edge">
<title>rs_lib_eternaltwin_token_store&#45;&gt;rs_lib_eternaltwin_hammerfest_store</title>
<path fill="none" stroke="black" stroke-dasharray="1,5" d="M2601.12,-363.43C2601.12,-363.43 2601.12,-325.78 2601.12,-325.78"/>
<polygon fill="black" stroke="black" points="2604.62,-325.78 2601.12,-315.78 2597.62,-325.78 2604.62,-325.78"/>
</g>
<!-- rs_lib_eternaltwin_token_store&#45;&gt;rs_lib_eternaltwin_populate -->
<g id="edge129" class="edge">
<title>rs_lib_eternaltwin_token_store&#45;&gt;rs_lib_eternaltwin_populate</title>
<path fill="none" stroke="black" d="M2585.08,-365.92C2585.08,-353.83 2585.08,-337 2585.08,-337 2585.08,-337 2295.51,-337 2295.51,-337 2295.51,-337 2295.51,-258.14 2295.51,-258.14"/>
<polygon fill="black" stroke="black" points="2299.01,-258.14 2295.51,-248.14 2292.01,-258.14 2299.01,-258.14"/>
</g>
<!-- rs_lib_eternaltwin_token_store&#45;&gt;rs_lib_eternaltwin_twinoid_store -->
<g id="edge134" class="edge">
<title>rs_lib_eternaltwin_token_store&#45;&gt;rs_lib_eternaltwin_twinoid_store</title>
<path fill="none" stroke="black" stroke-dasharray="1,5" d="M2768.16,-365C2810.4,-365 2851.68,-365 2851.68,-365 2851.68,-365 2851.68,-328.61 2851.68,-328.61"/>
<polygon fill="black" stroke="black" points="2855.18,-328.61 2851.68,-318.61 2848.18,-328.61 2855.18,-328.61"/>
</g>
<!-- rs_lib_eternaltwin_twinoid_store&#45;&gt;rs_lib_eternaltwin_config -->
<g id="edge139" class="edge">
<title>rs_lib_eternaltwin_twinoid_store&#45;&gt;rs_lib_eternaltwin_config</title>
<path fill="none" stroke="black" stroke-dasharray="1,5" d="M2909.02,-288.92C2909.02,-288.92 2909.02,-191.94 2909.02,-191.94"/>
<polygon fill="black" stroke="black" points="2912.52,-191.94 2909.02,-181.94 2905.52,-191.94 2912.52,-191.94"/>
</g>
<!-- rs_lib_eternaltwin_twinoid_store&#45;&gt;rs_lib_eternaltwin_constants -->
<g id="edge135" class="edge">
<title>rs_lib_eternaltwin_twinoid_store&#45;&gt;rs_lib_eternaltwin_constants</title>
<path fill="none" stroke="black" d="M2841.9,-315C2765.11,-315 2678.71,-315 2678.71,-315 2678.71,-315 2678.71,-156 2678.71,-156 2678.71,-156 2335.89,-156 2335.89,-156"/>
<polygon fill="black" stroke="black" points="2335.89,-152.5 2325.89,-156 2335.89,-159.5 2335.89,-152.5"/>
</g>
<!-- rs_lib_eternaltwin_twinoid_store&#45;&gt;rs_lib_eternaltwin_core -->
<g id="edge136" class="edge">
<title>rs_lib_eternaltwin_twinoid_store&#45;&gt;rs_lib_eternaltwin_core</title>
<path fill="none" stroke="black" stroke-dasharray="1,5" d="M3047.47,-292.49C3047.47,-292.49 3047.47,-119.76 3047.47,-119.76"/>
<polygon fill="black" stroke="black" points="3050.97,-119.76 3047.47,-109.76 3043.97,-119.76 3050.97,-119.76"/>
</g>
<!-- rs_lib_eternaltwin_twinoid_store&#45;&gt;rs_lib_eternaltwin_db_schema -->
<g id="edge140" class="edge">
<title>rs_lib_eternaltwin_twinoid_store&#45;&gt;rs_lib_eternaltwin_db_schema</title>
<path fill="none" stroke="black" stroke-dasharray="1,5" d="M3086.34,-300.82C3086.34,-300.82 3086.34,-254.59 3086.34,-254.59"/>
<polygon fill="black" stroke="black" points="3089.84,-254.59 3086.34,-244.59 3082.84,-254.59 3089.84,-254.59"/>
</g>
<!-- rs_lib_eternaltwin_twinoid_store&#45;&gt;rs_lib_eternaltwin_populate -->
<g id="edge137" class="edge">
<title>rs_lib_eternaltwin_twinoid_store&#45;&gt;rs_lib_eternaltwin_populate</title>
<path fill="none" stroke="black" d="M2867.16,-292.7C2867.16,-286.3 2867.16,-280 2867.16,-280 2867.16,-280 2324.54,-280 2324.54,-280 2324.54,-280 2324.54,-250.09 2324.54,-250.09"/>
<polygon fill="black" stroke="black" points="2328.04,-250.09 2324.54,-240.09 2321.04,-250.09 2328.04,-250.09"/>
</g>
<!-- rs_lib_eternaltwin_twinoid_store&#45;&gt;rs_lib_eternaltwin_postgres_tools -->
<g id="edge138" class="edge">
<title>rs_lib_eternaltwin_twinoid_store&#45;&gt;rs_lib_eternaltwin_postgres_tools</title>
<path fill="none" stroke="black" d="M2888.09,-290.35C2888.09,-271.99 2888.09,-244 2888.09,-244 2888.09,-244 2607.66,-244 2607.66,-244"/>
<polygon fill="black" stroke="black" points="2607.66,-240.5 2597.66,-244 2607.66,-247.5 2607.66,-240.5"/>
</g>
<!-- rs_lib_eternaltwin_user_store&#45;&gt;rs_lib_eternaltwin_config -->
<g id="edge142" class="edge">
<title>rs_lib_eternaltwin_user_store&#45;&gt;rs_lib_eternaltwin_config</title>
<path fill="none" stroke="black" stroke-dasharray="1,5" d="M3531.4,-288.73C3531.4,-280.74 3531.4,-273 3531.4,-273 3531.4,-273 2950.88,-273 2950.88,-273 2950.88,-273 2950.88,-190.37 2950.88,-190.37"/>
<polygon fill="black" stroke="black" points="2954.38,-190.37 2950.88,-180.37 2947.38,-190.37 2954.38,-190.37"/>
</g>
<!-- rs_lib_eternaltwin_user_store&#45;&gt;rs_lib_eternaltwin_core -->
<g id="edge141" class="edge">
<title>rs_lib_eternaltwin_user_store&#45;&gt;rs_lib_eternaltwin_core</title>
<path fill="none" stroke="black" d="M3611.7,-288.57C3611.7,-237.7 3611.7,-93 3611.7,-93 3611.7,-93 3150.43,-93 3150.43,-93"/>
<polygon fill="black" stroke="black" points="3150.43,-89.5 3140.43,-93 3150.43,-96.5 3150.43,-89.5"/>
</g>
<!-- rs_lib_eternaltwin_user_store&#45;&gt;rs_lib_eternaltwin_db_schema -->
<g id="edge143" class="edge">
<title>rs_lib_eternaltwin_user_store&#45;&gt;rs_lib_eternaltwin_db_schema</title>
<path fill="none" stroke="black" stroke-dasharray="1,5" d="M3457.34,-300C3382.16,-300 3297.56,-300 3297.56,-300 3297.56,-300 3297.56,-255.83 3297.56,-255.83"/>
<polygon fill="black" stroke="black" points="3301.06,-255.83 3297.56,-245.83 3294.06,-255.83 3301.06,-255.83"/>
</g>
<!-- rs_lib_xtask&#45;&gt;rs_lib_cargo_client -->
<g id="edge144" class="edge">
<title>rs_lib_xtask&#45;&gt;rs_lib_cargo_client</title>
<path fill="none" stroke="black" d="M839.6,-146.73C839.6,-146.73 839.6,-114.82 839.6,-114.82"/>
<polygon fill="black" stroke="black" points="843.1,-114.82 839.6,-104.82 836.1,-114.82 843.1,-114.82"/>
</g>
<!-- rs_lib_xtask&#45;&gt;rs_lib_eternaltwin_core -->
<g id="edge145" class="edge">
<title>rs_lib_xtask&#45;&gt;rs_lib_eternaltwin_core</title>
<path fill="none" stroke="black" d="M926.97,-162C981.56,-162 1056.09,-162 1056.09,-162 1056.09,-162 1056.09,-75 1056.09,-75 1056.09,-75 2972.22,-75 2972.22,-75"/>
<polygon fill="black" stroke="black" points="2972.22,-78.5 2982.22,-75 2972.22,-71.5 2972.22,-78.5"/>
</g>
<!-- rs_lib_xtask&#45;&gt;rs_lib_gitlab_client -->
<g id="edge146" class="edge">
<title>rs_lib_xtask&#45;&gt;rs_lib_gitlab_client</title>
<path fill="none" stroke="black" d="M904.74,-147.43C904.74,-147.43 904.74,-113.67 904.74,-113.67"/>
<polygon fill="black" stroke="black" points="908.24,-113.67 904.74,-103.67 901.24,-113.67 908.24,-113.67"/>
</g>
<!-- rs_lib_xtask&#45;&gt;rs_lib_npm_client -->
<g id="edge147" class="edge">
<title>rs_lib_xtask&#45;&gt;rs_lib_npm_client</title>
<path fill="none" stroke="black" d="M814.15,-162C746.92,-162 643.56,-162 643.56,-162 643.56,-162 643.56,-117.14 643.56,-117.14"/>
<polygon fill="black" stroke="black" points="647.06,-117.14 643.56,-107.14 640.06,-117.14 647.06,-117.14"/>
</g>
<!-- ts_lib_eternalfest_client -->
<g id="node41" class="node">
<title>ts_lib_eternalfest_client</title>
<ellipse fill="none" stroke="black" cx="1226.55" cy="-378" rx="99.46" ry="18"/>
<text text-anchor="middle" x="1226.55" y="-372.95" font-family="Times,serif" font-size="14.00">ts_lib_eternalfest_client</text>
</g>
<!-- ts_lib_eternaltwin_core -->
<g id="node43" class="node">
<title>ts_lib_eternaltwin_core</title>
<ellipse fill="none" stroke="black" cx="664.55" cy="-306" rx="97.93" ry="18"/>
<text text-anchor="middle" x="664.55" y="-300.95" font-family="Times,serif" font-size="14.00">ts_lib_eternaltwin_core</text>
</g>
<!-- ts_lib_eternalfest_client&#45;&gt;ts_lib_eternaltwin_core -->
<g id="edge148" class="edge">
<title>ts_lib_eternalfest_client&#45;&gt;ts_lib_eternaltwin_core</title>
<path fill="none" stroke="black" d="M1226.55,-359.52C1226.55,-336.45 1226.55,-300 1226.55,-300 1226.55,-300 768.86,-300 768.86,-300"/>
<polygon fill="black" stroke="black" points="768.86,-296.5 758.86,-300 768.86,-303.5 768.86,-296.5"/>
</g>
<!-- ts_lib_eternaltwin_cli -->
<g id="node42" class="node">
<title>ts_lib_eternaltwin_cli</title>
<ellipse fill="none" stroke="black" cx="3045.55" cy="-954" rx="91.27" ry="18"/>
<text text-anchor="middle" x="3045.55" y="-948.95" font-family="Times,serif" font-size="14.00">ts_lib_eternaltwin_cli</text>
</g>
<!-- ts_lib_eternaltwin_exe -->
<g id="node46" class="node">
<title>ts_lib_eternaltwin_exe</title>
<ellipse fill="none" stroke="black" cx="3045.55" cy="-882" rx="94.86" ry="18"/>
<text text-anchor="middle" x="3045.55" y="-876.95" font-family="Times,serif" font-size="14.00">ts_lib_eternaltwin_exe</text>
</g>
<!-- ts_lib_eternaltwin_cli&#45;&gt;ts_lib_eternaltwin_exe -->
<g id="edge149" class="edge">
<title>ts_lib_eternaltwin_cli&#45;&gt;ts_lib_eternaltwin_exe</title>
<path fill="none" stroke="black" d="M3045.55,-935.83C3045.55,-935.83 3045.55,-911.93 3045.55,-911.93"/>
<polygon fill="black" stroke="black" points="3049.05,-911.93 3045.55,-901.93 3042.05,-911.93 3049.05,-911.93"/>
</g>
<!-- ts_lib_eternaltwin_etwin_client_http -->
<g id="node44" class="node">
<title>ts_lib_eternaltwin_etwin_client_http</title>
<ellipse fill="none" stroke="black" cx="146.55" cy="-378" rx="146.55" ry="18"/>
<text text-anchor="middle" x="146.55" y="-372.95" font-family="Times,serif" font-size="14.00">ts_lib_eternaltwin_etwin_client_http</text>
</g>
<!-- ts_lib_eternaltwin_etwin_client_http&#45;&gt;ts_lib_eternaltwin_core -->
<g id="edge150" class="edge">
<title>ts_lib_eternaltwin_etwin_client_http&#45;&gt;ts_lib_eternaltwin_core</title>
<path fill="none" stroke="black" d="M146.55,-359.52C146.55,-336.45 146.55,-300 146.55,-300 146.55,-300 560.13,-300 560.13,-300"/>
<polygon fill="black" stroke="black" points="560.13,-303.5 570.13,-300 560.13,-296.5 560.13,-303.5"/>
</g>
<!-- ts_lib_eternaltwin_etwin_monorepo -->
<g id="node45" class="node">
<title>ts_lib_eternaltwin_etwin_monorepo</title>
<ellipse fill="none" stroke="black" cx="3299.55" cy="-954" rx="145.01" ry="18"/>
<text text-anchor="middle" x="3299.55" y="-948.95" font-family="Times,serif" font-size="14.00">ts_lib_eternaltwin_etwin_monorepo</text>
</g>
<!-- ts_lib_eternaltwin_exe_x86_64_apple_darwin -->
<g id="node47" class="node">
<title>ts_lib_eternaltwin_exe_x86_64_apple_darwin</title>
<ellipse fill="none" stroke="black" cx="2437.55" cy="-810" rx="181.86" ry="18"/>
<text text-anchor="middle" x="2437.55" y="-804.95" font-family="Times,serif" font-size="14.00">ts_lib_eternaltwin_exe_x86_64_apple_darwin</text>
</g>
<!-- ts_lib_eternaltwin_exe&#45;&gt;ts_lib_eternaltwin_exe_x86_64_apple_darwin -->
<g id="edge151" class="edge">
<title>ts_lib_eternaltwin_exe&#45;&gt;ts_lib_eternaltwin_exe_x86_64_apple_darwin</title>
<path fill="none" stroke="black" stroke-dasharray="1,5" d="M2950.21,-882C2779.1,-882 2437.55,-882 2437.55,-882 2437.55,-882 2437.55,-839.68 2437.55,-839.68"/>
<polygon fill="black" stroke="black" points="2441.05,-839.68 2437.55,-829.68 2434.05,-839.68 2441.05,-839.68"/>
</g>
<!-- ts_lib_eternaltwin_exe_x86_64_pc_windows_gnu -->
<g id="node48" class="node">
<title>ts_lib_eternaltwin_exe_x86_64_pc_windows_gnu</title>
<ellipse fill="none" stroke="black" cx="2834.55" cy="-810" rx="196.7" ry="18"/>
<text text-anchor="middle" x="2834.55" y="-804.95" font-family="Times,serif" font-size="14.00">ts_lib_eternaltwin_exe_x86_64_pc_windows_gnu</text>
</g>
<!-- ts_lib_eternaltwin_exe&#45;&gt;ts_lib_eternaltwin_exe_x86_64_pc_windows_gnu -->
<g id="edge152" class="edge">
<title>ts_lib_eternaltwin_exe&#45;&gt;ts_lib_eternaltwin_exe_x86_64_pc_windows_gnu</title>
<path fill="none" stroke="black" stroke-dasharray="1,5" d="M2990.97,-867.08C2990.97,-867.08 2990.97,-832.65 2990.97,-832.65"/>
<polygon fill="black" stroke="black" points="2994.47,-832.65 2990.97,-822.65 2987.47,-832.65 2994.47,-832.65"/>
</g>
<!-- ts_lib_eternaltwin_exe_x86_64_unknown_linux_gnu -->
<g id="node49" class="node">
<title>ts_lib_eternaltwin_exe_x86_64_unknown_linux_gnu</title>
<ellipse fill="none" stroke="black" cx="3257.55" cy="-810" rx="207.96" ry="18"/>
<text text-anchor="middle" x="3257.55" y="-804.95" font-family="Times,serif" font-size="14.00">ts_lib_eternaltwin_exe_x86_64_unknown_linux_gnu</text>
</g>
<!-- ts_lib_eternaltwin_exe&#45;&gt;ts_lib_eternaltwin_exe_x86_64_unknown_linux_gnu -->
<g id="edge153" class="edge">
<title>ts_lib_eternaltwin_exe&#45;&gt;ts_lib_eternaltwin_exe_x86_64_unknown_linux_gnu</title>
<path fill="none" stroke="black" stroke-dasharray="1,5" d="M3094.99,-866.38C3094.99,-866.38 3094.99,-832.87 3094.99,-832.87"/>
<polygon fill="black" stroke="black" points="3098.49,-832.87 3094.99,-822.87 3091.49,-832.87 3098.49,-832.87"/>
</g>
<!-- ts_lib_eternaltwin_exe_x86_64_unknown_linux_musl -->
<g id="node50" class="node">
<title>ts_lib_eternaltwin_exe_x86_64_unknown_linux_musl</title>
<ellipse fill="none" stroke="black" cx="3696.55" cy="-810" rx="212.57" ry="18"/>
<text text-anchor="middle" x="3696.55" y="-804.95" font-family="Times,serif" font-size="14.00">ts_lib_eternaltwin_exe_x86_64_unknown_linux_musl</text>
</g>
<!-- ts_lib_eternaltwin_exe&#45;&gt;ts_lib_eternaltwin_exe_x86_64_unknown_linux_musl -->
<g id="edge154" class="edge">
<title>ts_lib_eternaltwin_exe&#45;&gt;ts_lib_eternaltwin_exe_x86_64_unknown_linux_musl</title>
<path fill="none" stroke="black" stroke-dasharray="1,5" d="M3140.72,-882C3295.12,-882 3583.11,-882 3583.11,-882 3583.11,-882 3583.11,-837.14 3583.11,-837.14"/>
<polygon fill="black" stroke="black" points="3586.61,-837.14 3583.11,-827.14 3579.61,-837.14 3586.61,-837.14"/>
</g>
<!-- ts_lib_eternaltwin_exe_x86_64_apple_darwin&#45;&gt;exe_eternaltwin_x86_64_apple_darwin -->
<g id="edge155" class="edge">
<title>ts_lib_eternaltwin_exe_x86_64_apple_darwin&#45;&gt;exe_eternaltwin_x86_64_apple_darwin</title>
<path fill="none" stroke="black" stroke-dasharray="1,5" d="M2469.09,-791.83C2469.09,-791.83 2469.09,-767.93 2469.09,-767.93"/>
<polygon fill="black" stroke="black" points="2472.59,-767.93 2469.09,-757.93 2465.59,-767.93 2472.59,-767.93"/>
</g>
<!-- ts_lib_eternaltwin_exe_x86_64_pc_windows_gnu&#45;&gt;exe_eternaltwin_x86_64_pc_windows_gnu -->
<g id="edge156" class="edge">
<title>ts_lib_eternaltwin_exe_x86_64_pc_windows_gnu&#45;&gt;exe_eternaltwin_x86_64_pc_windows_gnu</title>
<path fill="none" stroke="black" stroke-dasharray="1,5" d="M2846.55,-791.83C2846.55,-791.83 2846.55,-767.93 2846.55,-767.93"/>
<polygon fill="black" stroke="black" points="2850.05,-767.93 2846.55,-757.93 2843.05,-767.93 2850.05,-767.93"/>
</g>
<!-- ts_lib_eternaltwin_exe_x86_64_unknown_linux_gnu&#45;&gt;exe_eternaltwin_x86_64_unknown_linux_gnu -->
<g id="edge157" class="edge">
<title>ts_lib_eternaltwin_exe_x86_64_unknown_linux_gnu&#45;&gt;exe_eternaltwin_x86_64_unknown_linux_gnu</title>
<path fill="none" stroke="black" stroke-dasharray="1,5" d="M3244.55,-791.83C3244.55,-791.83 3244.55,-767.93 3244.55,-767.93"/>
<polygon fill="black" stroke="black" points="3248.05,-767.93 3244.55,-757.93 3241.05,-767.93 3248.05,-767.93"/>
</g>
<!-- ts_lib_eternaltwin_exe_x86_64_unknown_linux_musl&#45;&gt;exe_eternaltwin_x86_64_unknown_linux_musl -->
<g id="edge158" class="edge">
<title>ts_lib_eternaltwin_exe_x86_64_unknown_linux_musl&#45;&gt;exe_eternaltwin_x86_64_unknown_linux_musl</title>
<path fill="none" stroke="black" stroke-dasharray="1,5" d="M3671.01,-791.83C3671.01,-791.83 3671.01,-767.93 3671.01,-767.93"/>
<polygon fill="black" stroke="black" points="3674.51,-767.93 3671.01,-757.93 3667.51,-767.93 3674.51,-767.93"/>
</g>
<!-- ts_lib_eternaltwin_koa_proxy -->
<g id="node51" class="node">
<title>ts_lib_eternaltwin_koa_proxy</title>
<ellipse fill="none" stroke="black" cx="950.55" cy="-378" rx="121.47" ry="18"/>
<text text-anchor="middle" x="950.55" y="-372.95" font-family="Times,serif" font-size="14.00">ts_lib_eternaltwin_koa_proxy</text>
</g>
<!-- ts_lib_eternaltwin_mt_dns -->
<g id="node52" class="node">
<title>ts_lib_eternaltwin_mt_dns</title>
<ellipse fill="none" stroke="black" cx="3572.55" cy="-954" rx="109.7" ry="18"/>
<text text-anchor="middle" x="3572.55" y="-948.95" font-family="Times,serif" font-size="14.00">ts_lib_eternaltwin_mt_dns</text>
</g>
<!-- ts_lib_eternaltwin_oauth_client_http -->
<g id="node53" class="node">
<title>ts_lib_eternaltwin_oauth_client_http</title>
<ellipse fill="none" stroke="black" cx="664.55" cy="-378" rx="146.55" ry="18"/>
<text text-anchor="middle" x="664.55" y="-372.95" font-family="Times,serif" font-size="14.00">ts_lib_eternaltwin_oauth_client_http</text>
</g>
<!-- ts_lib_eternaltwin_oauth_client_http&#45;&gt;ts_lib_eternaltwin_core -->
<g id="edge159" class="edge">
<title>ts_lib_eternaltwin_oauth_client_http&#45;&gt;ts_lib_eternaltwin_core</title>
<path fill="none" stroke="black" d="M664.55,-359.83C664.55,-359.83 664.55,-335.93 664.55,-335.93"/>
<polygon fill="black" stroke="black" points="668.05,-335.93 664.55,-325.93 661.05,-335.93 668.05,-335.93"/>
</g>
<!-- ts_lib_eternaltwin_pg_db -->
<g id="node54" class="node">
<title>ts_lib_eternaltwin_pg_db</title>
<ellipse fill="none" stroke="black" cx="3805.55" cy="-954" rx="105.09" ry="18"/>
<text text-anchor="middle" x="3805.55" y="-948.95" font-family="Times,serif" font-size="14.00">ts_lib_eternaltwin_pg_db</text>
</g>
<!-- ts_lib_eternaltwin_sdk -->
<g id="node55" class="node">
<title>ts_lib_eternaltwin_sdk</title>
<ellipse fill="none" stroke="black" cx="405.55" cy="-378" rx="94.86" ry="18"/>
<text text-anchor="middle" x="405.55" y="-372.95" font-family="Times,serif" font-size="14.00">ts_lib_eternaltwin_sdk</text>
</g>
<!-- ts_lib_eternaltwin_sdk&#45;&gt;ts_lib_eternaltwin_core -->
<g id="edge160" class="edge">
<title>ts_lib_eternaltwin_sdk&#45;&gt;ts_lib_eternaltwin_core</title>
<path fill="none" stroke="black" d="M405.55,-359.62C405.55,-340.09 405.55,-312 405.55,-312 405.55,-312 560.26,-312 560.26,-312"/>
<polygon fill="black" stroke="black" points="560.26,-315.5 570.26,-312 560.26,-308.5 560.26,-315.5"/>
</g>
<!-- ts_lib_eternaltwin_website&#45;&gt;ts_lib_eternaltwin_core -->
<g id="edge161" class="edge">
<title>ts_lib_eternaltwin_website&#45;&gt;ts_lib_eternaltwin_core</title>
<path fill="none" stroke="black" d="M1088.43,-434.97C1088.43,-399.2 1088.43,-312 1088.43,-312 1088.43,-312 769.08,-312 769.08,-312"/>
<polygon fill="black" stroke="black" points="769.08,-308.5 759.08,-312 769.08,-315.5 769.08,-308.5"/>
</g>
<!-- ts_lib_eternaltwin_website&#45;&gt;ts_lib_eternaltwin_koa_proxy -->
<g id="edge162" class="edge">
<title>ts_lib_eternaltwin_website&#45;&gt;ts_lib_eternaltwin_koa_proxy</title>
<path fill="none" stroke="black" d="M993.68,-432.57C993.68,-432.57 993.68,-406.78 993.68,-406.78"/>
<polygon fill="black" stroke="black" points="997.18,-406.78 993.68,-396.78 990.18,-406.78 997.18,-406.78"/>
</g>
<!-- ts_lib_eternaltwin_website&#45;&gt;ts_lib_eternaltwin_oauth_client_http -->
<g id="edge163" class="edge">
<title>ts_lib_eternaltwin_website&#45;&gt;ts_lib_eternaltwin_oauth_client_http</title>
<path fill="none" stroke="black" d="M915.27,-450C809.11,-450 664.55,-450 664.55,-450 664.55,-450 664.55,-407.68 664.55,-407.68"/>
<polygon fill="black" stroke="black" points="668.05,-407.68 664.55,-397.68 661.05,-407.68 668.05,-407.68"/>
</g>
</g>
</svg>
